{
  "IcoMoonType": "selection",
  "icons": [
    {
      "icon": {
        "paths": [
          "M509.357 94.592l-475.597 471.040 7.206 17.517h92.16v348.16h204.8v-348.16h204.8v348.16h348.16v-348.16h92.16l7.277-17.446-473.696-478.317-7.27 7.206zM870.406 562.669v348.16h-307.2v-348.16h-245.76v348.16h-163.84v-348.16h-87.744l450.63-446.317 442.003 446.317h-88.090z"
        ],
        "attrs": [
          {}
        ],
        "isMulticolor": false,
        "isMulticolor2": false,
        "grid": 0,
        "tags": [
          "Duality.vec-01"
        ]
      },
      "attrs": [
        {}
      ],
      "properties": {
        "order": 4,
        "id": 32,
        "name": "home-outline",
        "prevSize": 32,
        "code": 104
      },
      "setIdx": 0,
      "setId": 0,
      "iconIdx": 0
    },
    {
      "icon": {
        "paths": [
          "M509.357 94.592l-475.597 471.040 7.206 17.517h92.16v348.16h204.8v-348.16h204.8v348.16h348.16v-348.16h92.16l7.277-17.446-473.696-478.317z"
        ],
        "attrs": [
          {}
        ],
        "isMulticolor": false,
        "isMulticolor2": false,
        "grid": 0,
        "tags": [
          "Duality.vec-02"
        ]
      },
      "attrs": [
        {}
      ],
      "properties": {
        "order": 5,
        "id": 31,
        "name": "home",
        "prevSize": 32,
        "code": 72
      },
      "setIdx": 0,
      "setId": 0,
      "iconIdx": 1
    },
    {
      "icon": {
        "paths": [
          "M61.44 262.144h-10.24v561.152h921.6v-561.152h-911.36zM928.429 282.624l-416.429 274.566-416.429-274.566h832.858zM71.68 802.816v-511.418l440.32 290.323 440.32-290.323v511.418h-880.64z"
        ],
        "attrs": [
          {}
        ],
        "isMulticolor": false,
        "isMulticolor2": false,
        "grid": 0,
        "tags": [
          "Duality.vec-03"
        ]
      },
      "attrs": [
        {}
      ],
      "properties": {
        "order": 6,
        "id": 30,
        "name": "mail-outline",
        "prevSize": 32,
        "code": 101
      },
      "setIdx": 0,
      "setId": 0,
      "iconIdx": 2
    },
    {
      "icon": {
        "paths": [
          "M972.8 835.334v-541.619l-460.8 299.52-460.8-299.52v541.619h10.24z",
          "M968.141 224.64l-5.581-18.822h-901.12l-5.581 18.822 456.141 296.493z"
        ],
        "attrs": [
          {},
          {}
        ],
        "isMulticolor": false,
        "isMulticolor2": false,
        "grid": 0,
        "tags": [
          "Duality.vec-04"
        ]
      },
      "attrs": [
        {},
        {}
      ],
      "properties": {
        "order": 7,
        "id": 29,
        "name": "mail",
        "prevSize": 32,
        "code": 69
      },
      "setIdx": 0,
      "setId": 0,
      "iconIdx": 3
    },
    {
      "icon": {
        "paths": [
          "M885.485 228c-15.686-10.067-32.064-14.925-44.576-17.382-12.518-2.445-21.229-2.464-21.709-2.47 0 0-512 0-614.4 0-27.29-0.032-48.723 6.918-64.883 17.722-12.122 8.077-21.203 18.195-27.91 28.634-10.067 15.686-14.925 32.064-17.382 44.576-2.445 12.518-2.464 21.229-2.47 21.709 0 0.013 0 4.8 0 13.402 0 60.198 0 306.598 0 396.198-0.032 27.29 6.918 48.723 17.722 64.877 8.077 12.122 18.195 21.203 28.634 27.91 15.686 10.067 32.064 14.925 44.576 17.382 4.365 0.851 8.218 1.395 11.469 1.76v109.434l217.459-108.73c2.227 0 5.92 0 10.982 0 60.198 0 306.598 0 396.198 0 27.283 0.032 48.723-6.918 64.883-17.722 12.122-8.077 21.203-18.195 27.91-28.634 10.067-15.686 14.925-32.064 17.382-44.576 2.445-12.518 2.464-21.229 2.47-21.709 0 0 0-307.2 0-409.6 0.032-27.29-6.918-48.723-17.722-64.883-8.077-12.109-18.189-21.19-28.634-27.898zM899.091 778.099c-5.888 11.398-14.406 22.362-26.97 30.566-12.582 8.186-29.382 13.856-52.922 13.888-51.2 0-153.6 0-243.2 0-44.8 0-86.4 0-116.8 0-15.2 0-27.603 0-36.198 0-8.602 0-13.389 0-13.402 0h-2.419l-192.141 96.070v-96.070h-10.24c-0.736 0.045-24.998-0.467-47.706-12.269-11.398-5.888-22.362-14.406-30.566-26.97-8.186-12.582-13.856-29.382-13.888-52.922 0-51.2 0-153.6 0-243.2 0-44.8 0-86.4 0-116.8 0-15.2 0-27.597 0-36.198 0-8.57 0-13.344 0-13.395v0c-0.051-0.685 0.454-24.986 12.269-47.712 5.888-11.398 14.406-22.362 26.97-30.566 12.582-8.186 29.382-13.862 52.922-13.888 102.368 0 614.067 0 614.394 0h0.006c0.736-0.045 24.998 0.467 47.706 12.269 11.398 5.888 22.362 14.406 30.566 26.97 8.186 12.582 13.856 29.382 13.888 52.922 0 102.349 0 409.286 0 409.594v0c0.051 0.685-0.454 24.979-12.269 47.712z"
        ],
        "attrs": [
          {}
        ],
        "isMulticolor": false,
        "isMulticolor2": false,
        "grid": 0,
        "tags": [
          "Duality.vec-05"
        ]
      },
      "attrs": [
        {}
      ],
      "properties": {
        "order": 8,
        "id": 28,
        "name": "message-outline",
        "prevSize": 32,
        "code": 109
      },
      "setIdx": 0,
      "setId": 0,
      "iconIdx": 4
    },
    {
      "icon": {
        "paths": [
          "M885.485 228c-15.686-10.067-32.064-14.925-44.576-17.382-12.518-2.445-21.229-2.464-21.709-2.47 0 0-512 0-614.4 0-27.29-0.032-48.723 6.918-64.883 17.722-12.122 8.077-21.203 18.195-27.91 28.634-10.067 15.686-14.925 32.064-17.382 44.576-2.445 12.518-2.464 21.229-2.47 21.709 0 0.013 0 4.8 0 13.402 0 60.198 0 306.598 0 396.198-0.032 27.29 6.918 48.723 17.722 64.877 8.077 12.122 18.195 21.203 28.634 27.91 15.686 10.067 32.064 14.925 44.576 17.382 4.365 0.851 8.218 1.395 11.469 1.76v109.434l217.459-108.73c2.227 0 5.92 0 10.982 0 60.198 0 306.598 0 396.198 0 27.283 0.032 48.723-6.918 64.883-17.722 12.122-8.077 21.203-18.195 27.91-28.634 10.067-15.686 14.925-32.064 17.382-44.576 2.445-12.518 2.464-21.229 2.47-21.709 0 0 0-307.2 0-409.6 0.032-27.29-6.918-48.723-17.722-64.883-8.077-12.109-18.189-21.19-28.634-27.898z"
        ],
        "attrs": [
          {}
        ],
        "isMulticolor": false,
        "isMulticolor2": false,
        "grid": 0,
        "tags": [
          "Duality.vec-06"
        ]
      },
      "attrs": [
        {}
      ],
      "properties": {
        "order": 9,
        "id": 27,
        "name": "message",
        "prevSize": 32,
        "code": 77
      },
      "setIdx": 0,
      "setId": 0,
      "iconIdx": 5
    },
    {
      "icon": {
        "paths": [
          "M113.267 330.381c3.091 7.405 6.758 14.048 11.571 19.494 4.218 4.666 9.402 7.578 15.021 10.099 8.435 3.706 18.118 6.246 27.309 8.224 9.165 1.958 17.818 3.296 23.667 4.211 12.109 1.882 31.776 4.166 50.317 4.179 6.4 0 12.672-0.275 18.554-0.979 5.882-0.717 11.36-1.818 16.384-3.795v0c9.165-3.68 17.786-9.894 26.592-17.165 13.139-10.912 26.534-24.403 39.296-35.917 6.368-5.754 12.563-10.995 18.298-15.123 5.722-4.134 11.008-7.091 15.181-8.48 15.411-5.216 36.467-9.338 60.141-12.051 23.686-2.733 50.048-4.109 76.397-4.109s52.71 1.376 76.397 4.109c23.674 2.72 44.73 6.835 60.141 12.051 5.581 1.837 13.075 6.528 21.056 12.954 12.051 9.613 25.35 22.848 38.528 34.963 6.605 6.061 13.197 11.853 19.77 16.832 6.586 4.973 13.126 9.184 20.013 11.936 5.024 1.978 10.496 3.078 16.384 3.795 5.875 0.704 12.147 0.979 18.554 0.979 18.541-0.013 38.208-2.291 50.317-4.179 7.814-1.222 20.544-3.174 32.96-6.4 6.227-1.626 12.384-3.558 18.016-6.035 5.619-2.522 10.803-5.44 15.021-10.099 4.819-5.453 8.486-12.096 11.571-19.494 4.602-11.104 7.827-24.019 9.997-37.293 2.157-13.267 3.219-26.867 3.219-39.219-0.006-10.592-0.762-20.205-2.458-28.23v0c-2.048-9.414-6.688-18.912-12.742-28.672-9.101-14.579-21.568-29.549-34.451-42.694-12.928-13.139-26.106-24.333-37.338-31.296-9.862-6.067-22.253-11.008-36.141-15.405-20.813-6.554-44.973-11.718-67.872-15.757-22.893-4.026-44.486-6.899-59.949-8.73-40.39-4.768-100.621-7.104-160.986-7.11-60.365 0.006-120.602 2.342-160.992 7.117-20.621 2.445-52.134 6.726-83.098 13.152-15.488 3.213-30.842 6.963-44.723 11.334-13.894 4.397-26.278 9.338-36.141 15.405-7.514 4.646-15.814 11.162-24.41 18.893-12.864 11.597-26.246 25.888-37.267 40.474-5.51 7.296-10.426 14.662-14.374 21.894-3.942 7.245-6.957 14.33-8.48 21.402v0c-1.702 8.026-2.451 17.645-2.464 28.23 0.006 16.467 1.875 35.155 5.754 52.32 1.946 8.576 4.39 16.781 7.462 24.186zM122.541 229.914v0c1.171-5.658 4.762-13.619 10.086-22.112 7.962-12.794 19.654-26.931 31.693-39.181 12-12.25 24.531-22.72 33.478-28.218 7.462-4.634 18.605-9.235 31.539-13.299 19.424-6.131 42.912-11.187 65.267-15.117 22.362-3.936 43.622-6.765 58.81-8.563 38.899-4.608 98.81-6.976 158.586-6.97 59.776-0.006 119.686 2.355 158.586 6.976 20.25 2.394 51.302 6.63 81.35 12.864 15.014 3.117 29.779 6.733 42.726 10.816 12.934 4.058 24.077 8.666 31.539 13.299 5.946 3.661 13.549 9.549 21.453 16.678 11.885 10.701 24.563 24.256 34.637 37.6 5.037 6.669 9.421 13.28 12.736 19.366 3.328 6.067 5.542 11.635 6.432 15.866 1.267 5.888 2.016 14.413 2.010 23.955 0.006 14.893-1.76 32.403-5.248 47.795-1.741 7.693-3.91 14.867-6.4 20.858-2.477 5.997-5.318 10.79-7.968 13.747-0.909 1.114-3.834 3.181-7.974 4.966-6.208 2.752-14.893 5.146-23.328 6.938-8.461 1.811-16.698 3.091-22.541 4-11.232 1.76-30.304 3.942-47.162 3.93-5.805 0-11.341-0.256-16.109-0.832-4.755-0.563-8.762-1.485-11.27-2.502-5.613-2.189-13.094-7.238-21.069-13.894-12.038-9.971-25.344-23.334-38.65-35.354-6.669-6.016-13.35-11.712-20.058-16.544-6.726-4.819-13.453-8.832-20.595-11.258-17.574-5.92-39.712-10.144-64.346-12.992-24.621-2.835-51.68-4.243-78.739-4.243-27.066 0-54.125 1.408-78.746 4.243-24.634 2.848-46.778 7.078-64.346 12.992-9.504 3.258-18.342 9.248-27.296 16.358-13.35 10.688-26.816 24.154-39.59 35.878-6.374 5.856-12.557 11.258-18.285 15.597-5.709 4.346-11.002 7.578-15.2 9.222v0c-2.515 1.011-6.515 1.939-11.27 2.502-4.768 0.576-10.304 0.832-16.109 0.832-16.851 0.013-35.93-2.17-47.155-3.93-7.776-1.21-19.878-3.098-30.963-5.984-5.523-1.434-10.778-3.123-14.912-4.954-4.141-1.786-7.066-3.853-7.974-4.966-2.65-2.957-5.498-7.75-7.974-13.747-3.75-8.998-6.739-20.614-8.698-32.73-1.971-12.115-2.957-24.762-2.957-35.93-0.019-9.549 0.73-18.074 2.003-23.962z",
          "M512 747.635c24.723 0 47.245-9.683 63.571-25.395 16.333-15.686 26.573-37.587 26.566-61.709 0.006-24.122-10.234-46.022-26.566-61.709-16.326-15.712-38.848-25.395-63.571-25.395s-47.245 9.683-63.571 25.395c-16.333 15.686-26.573 37.587-26.566 61.709-0.006 24.122 10.234 46.022 26.566 61.709 16.326 15.712 38.848 25.395 63.571 25.395zM462.63 613.574c12.608-12.122 30.029-19.674 49.37-19.674s36.762 7.552 49.37 19.674c12.602 12.147 20.275 28.678 20.282 46.95-0.006 18.272-7.68 34.803-20.282 46.95-12.608 12.122-30.029 19.674-49.37 19.674s-36.762-7.552-49.37-19.674c-12.602-12.147-20.275-28.678-20.282-46.95 0.006-18.272 7.68-34.803 20.282-46.95z",
          "M512 824.499c46.746 0 89.242-18.31 120.032-47.942 30.797-29.606 50.003-70.726 49.997-116.032 0.006-45.312-19.194-86.426-49.997-116.032-30.79-29.632-73.286-47.942-120.032-47.942s-89.242 18.31-120.032 47.942c-30.797 29.606-50.003 70.726-49.997 116.032-0.006 45.312 19.194 86.426 49.997 116.032 30.79 29.638 73.286 47.942 120.032 47.942zM406.163 559.251c27.078-26.042 64.474-42.214 105.837-42.221 41.363 0 78.758 16.173 105.837 42.221 27.072 26.067 43.706 61.818 43.712 101.274-0.006 39.456-16.646 75.206-43.712 101.274-27.078 26.042-64.474 42.214-105.837 42.221-41.363 0-78.758-16.173-105.837-42.221-27.072-26.067-43.706-61.818-43.712-101.274 0.006-39.456 16.646-75.206 43.712-101.274z",
          "M137.363 835.226c22.17 17.888 48.685 30.842 72.934 40.422 24.224 9.562 46.304 15.725 59.155 19.469 29.619 8.621 67.219 14.925 108.998 19.149 41.766 4.218 87.654 6.317 133.555 6.317 45.894 0 91.789-2.099 133.555-6.317 41.779-4.224 79.379-10.534 108.998-19.149 8.55-2.49 21.254-6.074 35.91-11.008 22.003-7.411 48.474-17.837 72.8-32.589 24.282-14.765 46.694-33.907 59.597-59.456 6.515-13.043 8.954-28.704 8.979-45.914-0.006-19.968-3.405-42.163-8.998-64.909-8.41-34.099-21.811-69.389-36.864-99.418-7.533-15.014-15.475-28.704-23.507-40.314-8.058-11.61-16.109-21.139-24.416-27.936v0c-3.514-2.854-7.494-4.461-11.424-5.389-3.949-0.928-7.942-1.229-12-1.235-9.184 0.019-18.854 1.568-28.122 2.989-9.216 1.446-18.042 2.771-24.346 2.746-3.315 0.019-5.862-0.39-7.104-0.845-7.066-2.406-16.16-8.486-25.76-16.723-14.483-12.339-30.246-29.21-45.971-44.41-7.885-7.61-15.776-14.81-23.718-20.896-7.955-6.067-15.923-11.085-24.39-14.054-15.2-5.28-34.259-9.018-55.462-11.539-21.19-2.509-44.467-3.75-67.75-3.75s-46.56 1.242-67.75 3.75c-21.203 2.522-40.262 6.259-55.462 11.539-11.27 3.981-21.741 11.507-32.32 20.486-15.789 13.491-31.674 30.566-46.906 45.254-7.597 7.334-15.008 14.061-21.946 19.366-6.918 5.318-13.389 9.158-18.675 10.976-1.242 0.454-3.789 0.864-7.11 0.845-6.304 0.026-15.136-1.299-24.346-2.746-9.267-1.427-18.938-2.97-28.115-2.989-4.058 0.006-8.051 0.307-12 1.235-3.93 0.934-7.91 2.541-11.424 5.395-11.046 9.062-21.779 22.989-32.403 40.211-15.853 25.818-31.053 59.021-42.432 93.197-11.354 34.202-18.918 69.229-18.95 99.162 0.026 17.21 2.464 32.87 8.986 45.92 8.557 17.024 21.44 31.219 36.205 43.155zM121.043 686.144c7.968-32.371 20.928-66.515 35.29-95.136 7.174-14.31 14.701-27.238 22.042-37.843 7.315-10.598 14.528-18.861 20.518-23.718 0.429-0.358 1.402-0.915 3.206-1.338 1.786-0.429 4.301-0.685 7.277-0.685 6.784-0.019 15.776 1.306 24.973 2.746 9.248 1.421 18.669 2.97 27.494 2.989 4.685-0.019 9.261-0.416 13.843-1.984 11.27-3.981 21.741-11.514 32.32-20.486 15.789-13.491 31.674-30.566 46.906-45.254 7.597-7.334 15.008-14.061 21.946-19.366 6.918-5.318 13.389-9.158 18.675-10.976 12.973-4.531 30.912-8.16 51.13-10.541 20.23-2.4 42.79-3.61 65.344-3.61s45.107 1.21 65.338 3.61c20.218 2.387 38.163 6.010 51.136 10.541 7.066 2.406 16.16 8.486 25.76 16.723 14.483 12.339 30.246 29.21 45.971 44.41 7.885 7.61 15.776 14.81 23.718 20.896 7.955 6.067 15.923 11.085 24.39 14.054 4.576 1.574 9.158 1.971 13.843 1.984 8.826-0.026 18.246-1.568 27.494-2.989 9.197-1.446 18.189-2.765 24.973-2.746 2.976-0.006 5.491 0.256 7.277 0.685 1.805 0.429 2.784 0.979 3.213 1.338v0c8.019 6.477 18.067 19.002 27.898 35.059 14.829 24.109 29.562 56.198 40.448 88.941 10.912 32.717 17.939 66.227 17.907 92.698 0.026 15.213-2.355 27.968-6.797 36.717-6.88 13.696-17.664 25.824-30.79 36.429-19.667 15.91-44.486 28.211-67.578 37.306-23.117 9.12-44.371 15.072-57.37 18.854-27.731 8.090-64.39 14.31-105.325 18.438-40.947 4.134-86.227 6.214-131.494 6.214s-90.547-2.080-131.494-6.214c-40.934-4.128-77.594-10.349-105.325-18.438-8.678-2.528-20.986-6.003-35.11-10.752-21.171-7.117-46.368-17.12-68.71-30.688-22.387-13.555-41.645-30.618-51.923-51.149-4.448-8.749-6.829-21.504-6.803-36.717-0.026-17.626 3.066-38.432 8.39-60z"
        ],
        "attrs": [
          {},
          {},
          {},
          {}
        ],
        "isMulticolor": false,
        "isMulticolor2": false,
        "grid": 0,
        "tags": [
          "Duality.vec-07"
        ]
      },
      "attrs": [
        {},
        {},
        {},
        {}
      ],
      "properties": {
        "order": 10,
        "id": 26,
        "name": "phone-alt-outline",
        "prevSize": 32,
        "code": 91
      },
      "setIdx": 0,
      "setId": 0,
      "iconIdx": 6
    },
    {
      "icon": {
        "paths": [
          "M113.267 330.381c3.091 7.405 6.758 14.048 11.571 19.494 4.218 4.666 9.402 7.578 15.021 10.099 8.435 3.706 18.118 6.246 27.309 8.224 9.165 1.958 17.818 3.296 23.667 4.211 12.109 1.882 31.776 4.166 50.317 4.179 6.4 0 12.672-0.275 18.554-0.979 5.882-0.717 11.36-1.818 16.384-3.795v0c9.165-3.68 17.786-9.894 26.592-17.165 13.139-10.912 26.534-24.403 39.296-35.917 6.368-5.754 12.563-10.995 18.298-15.123 5.722-4.134 11.008-7.091 15.181-8.48 15.411-5.216 36.467-9.338 60.141-12.051 23.686-2.733 50.048-4.109 76.397-4.109s52.71 1.376 76.397 4.109c23.674 2.72 44.73 6.835 60.141 12.051 5.581 1.837 13.075 6.528 21.056 12.954 12.051 9.613 25.35 22.848 38.528 34.963 6.605 6.061 13.197 11.853 19.77 16.832 6.586 4.973 13.126 9.184 20.013 11.936 5.024 1.978 10.496 3.078 16.384 3.795 5.875 0.704 12.147 0.979 18.554 0.979 18.541-0.013 38.208-2.291 50.317-4.179 7.814-1.222 20.544-3.174 32.96-6.4 6.227-1.626 12.384-3.558 18.016-6.035 5.619-2.522 10.803-5.44 15.021-10.099 4.819-5.453 8.486-12.096 11.571-19.494 4.602-11.104 7.827-24.019 9.997-37.293 2.157-13.267 3.219-26.867 3.219-39.219-0.006-10.592-0.762-20.205-2.458-28.23v0c-2.048-9.414-6.688-18.912-12.742-28.672-9.101-14.579-21.568-29.549-34.451-42.694-12.928-13.139-26.106-24.333-37.338-31.296-9.862-6.067-22.253-11.008-36.141-15.405-20.813-6.554-44.973-11.718-67.872-15.757-22.893-4.026-44.486-6.899-59.949-8.73-40.39-4.768-100.621-7.104-160.986-7.11-60.365 0.006-120.602 2.342-160.992 7.117-20.621 2.445-52.134 6.726-83.098 13.152-15.488 3.213-30.842 6.963-44.723 11.334-13.894 4.397-26.278 9.338-36.141 15.405-7.514 4.646-15.814 11.162-24.41 18.893-12.864 11.597-26.246 25.888-37.267 40.474-5.51 7.296-10.426 14.662-14.374 21.894-3.942 7.245-6.957 14.33-8.48 21.402v0c-1.702 8.026-2.451 17.645-2.464 28.23 0.006 16.467 1.875 35.155 5.754 52.32 1.946 8.576 4.39 16.781 7.462 24.186z",
          "M512 747.635c24.723 0 47.245-9.683 63.571-25.395 16.333-15.686 26.573-37.587 26.566-61.709 0.006-24.122-10.234-46.022-26.566-61.709-16.326-15.712-38.848-25.395-63.571-25.395s-47.245 9.683-63.571 25.395c-16.333 15.686-26.573 37.587-26.566 61.709-0.006 24.122 10.234 46.022 26.566 61.709 16.326 15.712 38.848 25.395 63.571 25.395z",
          "M137.363 835.226c22.17 17.888 48.685 30.842 72.934 40.422 24.224 9.562 46.304 15.725 59.155 19.469 29.619 8.621 67.219 14.925 108.998 19.149 41.766 4.218 87.654 6.317 133.555 6.317 45.894 0 91.789-2.099 133.555-6.317 41.779-4.224 79.379-10.534 108.998-19.149 8.55-2.49 21.254-6.074 35.91-11.008 22.003-7.411 48.474-17.837 72.8-32.589 24.282-14.765 46.694-33.907 59.597-59.456 6.515-13.043 8.954-28.704 8.979-45.914-0.006-19.968-3.405-42.163-8.998-64.909-8.41-34.099-21.811-69.389-36.864-99.418-7.533-15.014-15.475-28.704-23.507-40.314-8.058-11.61-16.109-21.139-24.416-27.936v0c-3.514-2.854-7.494-4.461-11.424-5.389-3.949-0.928-7.942-1.229-12-1.235-9.184 0.019-18.854 1.568-28.122 2.989-9.216 1.446-18.042 2.771-24.346 2.746-3.315 0.019-5.862-0.39-7.104-0.845-7.066-2.406-16.16-8.486-25.76-16.723-14.483-12.339-30.246-29.21-45.971-44.41-7.885-7.61-15.776-14.81-23.718-20.896-7.955-6.067-15.923-11.085-24.39-14.054-15.2-5.28-34.259-9.018-55.462-11.539-21.19-2.509-44.467-3.75-67.75-3.75s-46.56 1.242-67.75 3.75c-21.203 2.522-40.262 6.259-55.462 11.539-11.27 3.981-21.741 11.507-32.32 20.486-15.789 13.491-31.674 30.566-46.906 45.254-7.597 7.334-15.008 14.061-21.946 19.366-6.918 5.318-13.389 9.158-18.675 10.976-1.242 0.454-3.789 0.864-7.11 0.845-6.304 0.026-15.136-1.299-24.346-2.746-9.267-1.427-18.938-2.97-28.115-2.989-4.058 0.006-8.051 0.307-12 1.235-3.93 0.934-7.91 2.541-11.424 5.395-11.046 9.062-21.779 22.989-32.403 40.211-15.853 25.818-31.053 59.021-42.432 93.197-11.354 34.202-18.918 69.229-18.95 99.162 0.026 17.21 2.464 32.87 8.986 45.92 8.557 17.024 21.44 31.219 36.205 43.155zM362.451 660.525c0.006-39.456 16.646-75.206 43.712-101.274 27.078-26.042 64.474-42.214 105.837-42.221 41.363 0 78.758 16.173 105.837 42.221 27.072 26.067 43.706 61.818 43.712 101.274-0.006 39.456-16.646 75.206-43.712 101.274-27.078 26.042-64.474 42.214-105.837 42.221-41.363 0-78.758-16.173-105.837-42.221-27.066-26.061-43.706-61.811-43.712-101.274z"
        ],
        "attrs": [
          {},
          {},
          {}
        ],
        "isMulticolor": false,
        "isMulticolor2": false,
        "grid": 0,
        "tags": [
          "Duality.vec-08"
        ]
      },
      "attrs": [
        {},
        {},
        {}
      ],
      "properties": {
        "order": 11,
        "id": 25,
        "name": "phone-alt",
        "prevSize": 32,
        "code": 93
      },
      "setIdx": 0,
      "setId": 0,
      "iconIdx": 7
    },
    {
      "icon": {
        "paths": [
          "M630.637 627.014l-67.232 40.691c-4.87-2.208-14.17-7.213-26.611-17.747-18.387-15.578-43.424-43.136-69.888-91.181-36.704-66.675-42.285-111.155-42.304-132.384 0-4.723 0.282-8.237 0.563-10.656l66.938-40.512-84.787-302.522c-3.616-12.941-15.104-21.51-27.686-21.504-4.576-0.006-9.286 1.158-13.562 3.546-8.73 4.87-21.082 13.043-35.45 23.494-21.51 15.661-47.283 36.307-70.131 57.741-11.424 10.72-22.112 21.632-31.194 32.294-9.075 10.682-16.563 21.050-21.574 31.117-22.144 44.762-33.613 104.282-33.638 170.726 0.026 98.739 25.523 212.838 81.933 315.309 47.213 85.696 112.070 155.437 179.808 204.832 33.875 24.698 68.486 44.307 102.080 58.259 33.594 13.939 66.176 22.234 96.128 24.109 1.875 0.115 3.795 0.173 5.754 0.173 14.63-0.019 31.686-3.002 49.958-7.571 27.36-6.88 57.286-17.472 83.539-28.019 26.272-10.566 48.691-21.011 61.312-27.898 4.998-2.726 8.902-6.778 11.462-11.36 2.573-4.595 3.872-9.728 3.872-14.918 0.013-7.059-2.47-14.355-7.674-20.147l-211.616-235.872zM828.179 887.93c-0.819 1.44-1.92 2.579-3.424 3.405-7.571 4.141-19.981 10.157-34.944 16.717-22.47 9.856-50.835 21.030-78.253 29.664-13.702 4.32-27.174 8-39.488 10.579-12.301 2.586-23.469 4.038-32.307 4.026-1.574 0-3.066-0.045-4.48-0.134-27.091-1.683-57.638-9.331-89.549-22.586-47.872-19.866-98.79-52.288-146.202-95.302-47.424-43.014-91.373-96.608-125.594-158.752-54.586-99.066-79.405-210.182-79.379-305.427-0.032-64.051 11.27-120.883 31.514-161.626 5.082-10.336 15.123-23.443 27.782-36.973 18.989-20.365 43.802-41.971 66.758-60.013 11.475-9.024 22.496-17.171 32.090-23.859 9.574-6.682 17.779-11.923 23.328-15.008 1.248-0.691 2.413-0.954 3.597-0.96 3.232 0.006 6.739 2.227 7.962 6.554l80.595 287.526-61.242 37.062-1.037 4.058c-0.198 0.781-1.779 7.366-1.779 19.514-0.013 24.896 6.682 73.018 44.845 142.266 28.378 51.533 55.802 81.459 76.557 98.573 20.742 17.12 34.79 21.37 36.070 21.722l4.275 1.203 60.858-36.832 200.275 223.238c1.645 1.843 2.426 4.083 2.438 6.47-0.006 1.728-0.461 3.462-1.267 4.896z"
        ],
        "attrs": [
          {}
        ],
        "isMulticolor": false,
        "isMulticolor2": false,
        "grid": 0,
        "tags": [
          "Duality.vec-09"
        ]
      },
      "attrs": [
        {}
      ],
      "properties": {
        "order": 12,
        "id": 24,
        "name": "phone-outline",
        "prevSize": 32,
        "code": 40
      },
      "setIdx": 0,
      "setId": 0,
      "iconIdx": 8
    },
    {
      "icon": {
        "paths": [
          "M630.637 627.014l-67.232 40.691c-4.87-2.208-14.17-7.213-26.611-17.747-18.387-15.578-43.424-43.136-69.888-91.181-36.704-66.669-42.285-111.155-42.304-132.384 0-4.723 0.282-8.237 0.563-10.656l66.938-40.512-84.787-302.522c-3.616-12.941-15.104-21.51-27.686-21.504-4.576-0.006-9.286 1.158-13.562 3.546-8.73 4.87-21.082 13.043-35.45 23.494-21.51 15.661-47.283 36.307-70.131 57.741-11.424 10.72-22.112 21.632-31.194 32.294-9.075 10.682-16.563 21.050-21.574 31.117-22.144 44.762-33.613 104.282-33.638 170.726 0.026 98.739 25.523 212.838 81.933 315.309 47.213 85.696 112.070 155.437 179.808 204.832 33.875 24.698 68.486 44.307 102.080 58.259 33.594 13.939 66.176 22.234 96.128 24.109 1.875 0.115 3.795 0.173 5.754 0.173 14.63-0.019 31.686-3.002 49.958-7.571 27.36-6.88 57.286-17.472 83.539-28.019 26.272-10.566 48.691-21.011 61.312-27.898 4.998-2.726 8.902-6.778 11.462-11.36 2.573-4.595 3.872-9.728 3.872-14.918 0.013-7.059-2.47-14.355-7.674-20.147l-211.616-235.872z"
        ],
        "attrs": [
          {}
        ],
        "isMulticolor": false,
        "isMulticolor2": false,
        "grid": 0,
        "tags": [
          "Duality.vec-10"
        ]
      },
      "attrs": [
        {}
      ],
      "properties": {
        "order": 13,
        "id": 23,
        "name": "phone",
        "prevSize": 32,
        "code": 41
      },
      "setIdx": 0,
      "setId": 0,
      "iconIdx": 9
    },
    {
      "icon": {
        "paths": [
          "M213.056 186.874v0c-0.013 0.762-0.32 13.555-6.829 32.282-6.522 18.746-19.174 43.424-44.122 68.39-25.766 25.754-51.238 38.406-70.182 44.736-9.466 3.155-17.299 4.71-22.656 5.478-2.682 0.384-4.742 0.57-6.080 0.659-0.672 0.045-1.158 0.064-1.453 0.077l-10.534-0v534.464h921.6v-696.32h-759.744v10.234zM472.032 586.854v0c-0.794 0.294-1.581 0.467-2.368 0.653-0.838 0.192-1.696 0.314-2.554 0.39-0.55 0.045-1.088 0.141-1.651 0.141-2.854 0-5.952-0.614-9.293-1.882-5.83-2.195-12.269-6.464-18.374-11.808-4.595-4-9.005-8.57-13.018-13.165s-7.622-9.216-10.618-13.318c-2.253-3.078-4.173-5.862-5.683-8.128-0.506-0.755-0.96-1.453-1.37-2.086-0.819-1.267-1.446-2.266-1.862-2.944l-0.461-0.755-0.109-0.179-0.019-0.032-0.173-0.301-0.198-0.288c-0.544-0.787-4.589-6.458-13.242-12.346-8.627-5.894-21.946-11.898-40.224-13.184v0c0 0 0 0 0 0s0 0 0 0c-0.915-0.064-1.837-0.096-2.746-0.096-3.36 0.006-6.618 0.48-9.798 1.222l57.587-79.514 103.546 133.517c-0.813 2.534-2.144 5.51-4.595 8.71-3.898 5.050-10.502 10.765-22.778 15.392zM288.134 577.523l0.026 0.019c0 0 0.16-0.23 0.397-0.576l8.454-11.27c0.237-0.294 0.538-0.64 0.781-0.941 6.061-7.482 14.49-16.864 23.584-24.205 4.736-3.84 9.626-7.091 14.227-9.274 1.152-0.55 2.285-1.030 3.386-1.44 3.309-1.229 6.374-1.837 9.062-1.83l1.286 0.045c3.642 0.262 6.976 0.749 10.016 1.389 9.12 1.92 15.629 5.248 20.16 8.307 3.008 2.048 5.114 3.987 6.4 5.331 0.646 0.672 1.082 1.19 1.325 1.491l0.096 0.122c0.397 0.659 1.171 1.92 2.323 3.706 0.531 0.826 1.158 1.779 1.83 2.797 0.589 0.89 1.216 1.824 1.914 2.835 0.499 0.723 1.024 1.485 1.574 2.266 1.338 1.901 2.848 3.974 4.474 6.138 1.050 1.395 2.144 2.822 3.309 4.294 2.221 2.81 4.64 5.734 7.226 8.672 1.728 1.958 3.533 3.923 5.414 5.869 5.632 5.837 11.917 11.494 18.803 16.205 4.595 3.136 9.478 5.856 14.688 7.834 5.203 1.978 10.765 3.213 16.563 3.219v0 0c2.278 0 4.582-0.192 6.886-0.602s4.608-1.030 6.874-1.882v0c0 0 0 0 0 0v0c3.77-1.408 7.226-2.963 10.4-4.627 0.045-0.026 0.102-0.045 0.147-0.070 4.813-2.541 8.954-5.338 12.48-8.275s6.445-6.022 8.819-9.133c0.973-1.267 1.824-2.528 2.624-3.789l43.398 51.981-166.605 220.352h-308.557l206.214-274.957zM952.32 852.48h-532.48l219.661-292.877c0.608 0.403 1.274 0.826 1.939 1.254 6.061 3.898 14.221 8.749 23.968 13.485 17.933 8.672 40.998 16.973 65.536 17.018 4.23 0 8.506-0.275 12.787-0.832 2.451-0.32 4.902-0.71 7.354-1.235 2.246-0.48 4.486-1.050 6.726-1.715v0 0 0 0c11.808-3.526 23.392-7.693 34.342-12.090 27.149-10.899 50.381-23.181 63.475-30.509l96.698 96.698v210.803zM751.955 567.955v0c-6.822 2.029-13.862 2.925-21.018 2.931-9.882 0.019-19.968-1.741-29.613-4.493-5.83-1.664-11.462-3.718-16.826-5.939-3.514-1.453-6.938-2.963-10.15-4.531-3.725-1.805-7.194-3.648-10.406-5.44-0.474-0.262-0.947-0.525-1.402-0.781-4.16-2.362-7.738-4.576-10.726-6.515l86.573-115.43 102.163 102.163c-19.123 10.419-53.344 27.558-88.595 38.035zM952.32 612.717l-216.147-216.147-165.19 220.243-52.499-62.88-123.194-158.848-114.528 158.138c-4.403 5.51-7.469 9.818-8.806 11.75l-0.038 0.051v0.006l-200.237 266.97v-473.907c6.47-0.896 15.667-2.707 26.72-6.387 21.523-7.162 50.003-21.485 78.189-49.683 28.198-28.186 42.522-56.666 49.683-78.189 3.68-11.053 5.491-20.25 6.387-26.72h719.661v415.603z"
        ],
        "attrs": [
          {}
        ],
        "isMulticolor": false,
        "isMulticolor2": false,
        "grid": 0,
        "tags": [
          "Duality.vec-11"
        ]
      },
      "attrs": [
        {}
      ],
      "properties": {
        "order": 14,
        "id": 22,
        "name": "picture-outline",
        "prevSize": 32,
        "code": 112
      },
      "setIdx": 0,
      "setId": 0,
      "iconIdx": 10
    },
    {
      "icon": {
        "paths": [
          "M897.779 535.309l-145.99-145.99-176.493 235.322-56.653-67.853-131.034-168.954-121.85 168.237-242.976 323.974 8.192 16.384h972.8v-255.123l-105.997-105.997zM754.003 420.493l110.362 110.362c-20.288 11.104-57.37 29.773-95.59 41.133v0c-7.36 2.189-14.95 3.155-22.65 3.155-21.274 0.045-43.347-7.571-60.755-16.051-5.958-2.886-11.309-5.843-15.974-8.602-3.085-1.818-5.811-3.52-8.179-5.056-0.205-0.134-0.416-0.269-0.614-0.397l93.402-124.544zM388.173 421.978l111.411 143.654c-0.87 2.842-2.349 6.234-5.133 9.869-4.25 5.504-11.43 11.686-24.646 16.672-1.478 0.55-2.944 0.864-4.416 1.062-0.941 0.128-1.875 0.243-2.848 0.243-3.149 0-6.541-0.678-10.17-2.054-6.342-2.387-13.274-6.995-19.84-12.742-9.882-8.595-18.925-19.61-25.35-28.397-0.806-1.101-1.568-2.163-2.291-3.181-2.163-3.059-3.949-5.728-5.261-7.763-0.877-1.357-1.549-2.432-1.997-3.155l-0.493-0.813-0.115-0.192-0.026-0.038-0.179-0.307-0.198-0.288c-0.544-0.787-4.806-6.778-13.958-13.005-9.126-6.234-23.226-12.595-42.624-13.965v0c0 0 0 0 0 0s0 0 0 0c-0.966-0.070-1.926-0.102-2.886-0.102v0 0c-0.134 0-0.269 0.026-0.41 0.026-3.43 0.038-6.771 0.518-10.029 1.286-0.563 0.134-1.133 0.25-1.69 0.403l63.149-87.213z"
        ],
        "attrs": [
          {}
        ],
        "isMulticolor": false,
        "isMulticolor2": false,
        "grid": 0,
        "tags": [
          "Duality.vec-12"
        ]
      },
      "attrs": [
        {}
      ],
      "properties": {
        "order": 25,
        "id": 21,
        "name": "picture",
        "prevSize": 32,
        "code": 80
      },
      "setIdx": 0,
      "setId": 0,
      "iconIdx": 11
    },
    {
      "icon": {
        "paths": [
          "M795.309 234.688l-142.534-142.528h-560.614v839.68h839.68v-560.614l-136.531-136.538zM644.288 112.64l130.534 130.534v87.917h-525.651v-218.451h395.117zM911.36 379.706v531.654h-798.72v-798.72h116.051v238.931h566.611v-87.917l116.058 116.051z",
          "M228.691 897.171h566.611v-434.342h-566.611v434.342zM249.171 483.309h525.651v393.389h-525.651v-393.389z",
          "M307.2 544.429h409.6v20.48h-409.6v-20.48z",
          "M307.2 672.429h409.6v20.48h-409.6v-20.48z",
          "M298.669 800.429h341.331v20.48h-341.331v-20.48z"
        ],
        "attrs": [
          {},
          {},
          {},
          {},
          {}
        ],
        "isMulticolor": false,
        "isMulticolor2": false,
        "grid": 0,
        "tags": [
          "Duality.vec-13"
        ]
      },
      "attrs": [
        {},
        {},
        {},
        {},
        {}
      ],
      "properties": {
        "order": 24,
        "id": 20,
        "name": "save",
        "prevSize": 32,
        "code": 83
      },
      "setIdx": 0,
      "setId": 0,
      "iconIdx": 12
    },
    {
      "icon": {
        "paths": [
          "M795.309 234.688l-142.534-142.528h-560.614v839.68h839.68v-560.614l-136.531-136.538zM644.288 112.64l130.534 130.534v87.917h-525.651v-218.451h395.117zM911.36 379.706v531.648h-798.72v-798.714h116.051v238.931h566.611v-87.917l116.058 116.051z",
          "M228.691 897.171h566.611v-434.342h-566.611v434.342zM249.171 483.309h525.658v393.389h-525.658v-393.389z"
        ],
        "attrs": [
          {},
          {}
        ],
        "isMulticolor": false,
        "isMulticolor2": false,
        "grid": 0,
        "tags": [
          "Duality.vec-14"
        ]
      },
      "attrs": [
        {},
        {}
      ],
      "properties": {
        "order": 23,
        "id": 19,
        "name": "save-outline",
        "prevSize": 32,
        "code": 115
      },
      "setIdx": 0,
      "setId": 0,
      "iconIdx": 13
    },
    {
      "icon": {
        "paths": [
          "M61.44 202.24h-10.24v621.229h413.011v54.611h-139.942c-2.694 0-5.338 1.094-7.238 3.002-1.907 1.907-3.002 4.544-3.002 7.238s1.094 5.331 3.002 7.238c1.907 1.907 4.544 3.002 7.238 3.002h375.469c2.694 0 5.331-1.094 7.238-3.002s3.002-4.544 3.002-7.238-1.094-5.331-3.002-7.238c-1.907-1.907-4.544-3.002-7.238-3.002h-139.955v-54.611h413.018v-621.229h-911.36zM952.32 704.787h-880.64v-482.067h880.64v482.067zM539.302 878.080h-54.611v-54.611h54.611v54.611zM559.782 802.989h-488.102v-77.722h880.64v77.722h-392.538z"
        ],
        "attrs": [
          {}
        ],
        "isMulticolor": false,
        "isMulticolor2": false,
        "grid": 0,
        "tags": [
          "Duality.vec-15"
        ]
      },
      "attrs": [
        {}
      ],
      "properties": {
        "order": 22,
        "id": 18,
        "name": "display-outline",
        "prevSize": 32,
        "code": 100
      },
      "setIdx": 0,
      "setId": 0,
      "iconIdx": 14
    },
    {
      "icon": {
        "paths": [
          "M962.56 202.24h-901.12c-2.694 0-5.338 1.094-7.238 3.002-1.914 1.907-3.002 4.544-3.002 7.238v610.989h413.011v54.611h-139.942c-2.694 0-5.338 1.094-7.238 3.002-1.907 1.907-3.002 4.544-3.002 7.238s1.094 5.331 3.002 7.238c1.907 1.907 4.544 3.002 7.238 3.002h375.469c2.694 0 5.331-1.094 7.238-3.002s3.002-4.544 3.002-7.238-1.094-5.331-3.002-7.238c-1.907-1.907-4.544-3.002-7.238-3.002h-139.955v-54.611h413.018v-610.989c0-2.694-1.094-5.331-3.002-7.238s-4.544-3.002-7.238-3.002zM71.68 704.787v-482.067h880.64v482.067h-880.64z"
        ],
        "attrs": [
          {}
        ],
        "isMulticolor": false,
        "isMulticolor2": false,
        "grid": 0,
        "tags": [
          "Duality.vec-16"
        ]
      },
      "attrs": [
        {}
      ],
      "properties": {
        "order": 21,
        "id": 17,
        "name": "display",
        "prevSize": 32,
        "code": 68
      },
      "setIdx": 0,
      "setId": 0,
      "iconIdx": 15
    },
    {
      "icon": {
        "paths": [
          "M639.776 842.63l-0.006-0.013v-0.006z",
          "M689.139 148.698l-0.006-0.006v-0.006z",
          "M596.051 148.698l-0.013-0.013z",
          "M931.814 485.19c0-4.87-0.352-9.843-1.203-14.861v-0.006c-0.55-3.219-1.242-6.381-1.99-9.51-25.274-207.712-202.086-368.646-416.621-368.653-231.878 0.006-419.834 187.962-419.84 419.84 0 21.843 1.677 43.29 4.89 64.23h-2.688l4.179 8.358c34.406 197.261 206.349 347.245 413.459 347.251 231.878-0.006 419.834-187.962 419.84-419.84 0-5.805-0.205-11.565-0.442-17.312 0.256-3.117 0.41-6.285 0.416-9.498zM776.896 501.568c-2.381 0.762-4.89 2.093-6.995 4.032-1.574 1.44-2.886 3.168-3.885 4.986-1.498 2.739-2.342 5.632-2.874 8.678-0.525 3.059-0.73 6.323-0.73 10.016 0.006 5.766 0.627 12.166 1.203 18.848 0.582 6.656 1.126 13.523 1.126 19.674 0 3.725-0.205 7.174-0.653 10.048-0.442 2.88-1.139 5.165-1.869 6.605-34.829 69.658-69.658 139.309-104.486 208.966-5.286-4.378-10.925-8.96-15.514-13.35-2.355-2.253-4.422-4.442-5.978-6.413-1.568-1.958-2.592-3.699-3.040-4.832l-0.006-0.013c-0.621-1.523-0.96-3.533-0.96-6.253-0.006-2.534 0.307-5.6 0.685-9.018 0.365-3.424 0.8-7.213 0.8-11.328 0.006-5.178-0.717-11.091-3.61-16.883-9.376-18.739-17.606-35.725-27.405-52.013-9.786-16.275-21.171-31.795-36.576-47.194-0.525-0.512-2.042-2.285-3.802-4.659-6.323-8.422-16.787-24.672-25.382-39.834-4.307-7.584-8.179-14.957-10.861-20.87-1.338-2.944-2.381-5.536-3.014-7.462-0.064-0.186-0.102-0.333-0.154-0.506 21.011-21.011 42.029-42.029 63.040-63.040 0.154 0.186 0.294 0.358 0.448 0.544 4.461 5.446 9.779 12.115 15.366 17.984 2.803 2.938 5.677 5.69 8.755 8.058 3.104 2.342 6.355 4.435 10.656 5.581 2.157 0.544 4.192 0.71 6.163 0.71 4.256-0.019 8.339-0.781 12.499-1.786 6.202-1.53 12.506-3.738 18.112-5.728 5.542-1.99 10.566-3.795 12.992-4.378 1.107-0.282 3.872-0.87 7.488-1.6 12.774-2.598 36.966-7.277 58.163-12.48 10.63-2.611 20.474-5.331 28.173-8.166 3.872-1.446 7.181-2.854 10.202-4.71 1.517-0.96 2.995-2.003 4.538-3.706 0.762-0.864 1.549-1.92 2.214-3.334 0.659-1.395 1.171-3.206 1.165-5.19 0-22.688 0-45.382 0-68.070 0.032-2.502-0.736-5.498-2.4-7.853-1.222-1.773-2.79-3.091-4.275-3.974-2.253-1.331-4.307-1.869-6.163-2.202-1.862-0.32-3.59-0.403-5.293-0.41-4.352 0.013-8.672 0.589-12.781 1.088-4.064 0.512-7.91 0.947-10.291 0.934-0.435 0-0.755-0.019-1.056-0.038-24.154-24.154-48.301-48.301-72.454-72.454l-17.478 7.238c0.019 6.963 0.998 15.571 1.92 24.909 0.934 9.28 1.824 19.136 1.818 27.488 0 4.166-0.224 7.949-0.698 10.957-0.384 2.566-0.986 4.486-1.498 5.6-0.678 0.55-2.445 1.626-4.634 2.675-3.366 1.645-7.731 3.379-11.75 4.915-2.016 0.774-3.955 1.504-5.709 2.202-1.773 0.704-3.315 1.331-4.851 2.093-12.352 6.176-24.71 12.352-37.062 18.534-0.128-0.083-0.237-0.154-0.365-0.25-2.285-1.587-5.459-4.192-8.723-7.187-4.915-4.493-10.157-9.926-13.926-14.464-1.555-1.862-2.765-3.494-3.648-4.8 11.347-22.701 22.701-45.395 34.048-68.096l3.302-6.598-5.216-5.216c-9.997-9.997-20-20-29.997-29.997 9.056-9.056 18.112-18.112 27.174-27.168 0.077-0.070 0.992-0.531 2.63-0.826 1.664-0.32 3.974-0.493 6.554-0.486 3.718 0 7.974 0.333 12.051 0.704 4.115 0.358 7.949 0.768 11.59 0.781 1.907-0.013 5.587 0.32 9.76 0.704 4.205 0.371 8.998 0.781 13.882 0.781 3.866-0.006 7.795-0.237 11.763-1.133 3.923-0.922 8.166-2.496 11.834-6.106 11.494-11.494 22.982-22.989 34.477-34.477l-7.238-17.478c-1.741 0.006-3.45 0.147-5.568 0.32-6.176 0.531-15.309 1.491-21.645 1.485-0.55 0-1.069-0.006-1.568-0.019-0.013-0.499-0.026-1.011-0.026-1.568-0.006-4.186 0.416-9.728 0.864-14.701 0.224-2.496 0.448-4.864 0.621-6.944 0.173-2.112 0.314-3.827 0.32-5.562l-17.478-7.238c-11.219 11.219-22.445 22.445-33.664 33.664-0.461 0.16-1.222 0.403-2.176 0.621-4.589 1.12-12.806 1.978-19.066 1.958-1.344 0-2.598-0.038-3.699-0.102-0.077-1.274-0.122-2.694-0.122-4.269-0.006-4.864 0.39-10.682 1.037-14.982 0.186-1.267 0.397-2.381 0.602-3.27 14.63-7.315 29.254-14.63 43.885-21.939v0c2.131-1.075 4.045-2.278 6.035-3.526 2.95-1.862 6.010-3.802 8.64-5.126 1.306-0.659 2.49-1.158 3.373-1.44 0.397-0.128 0.698-0.198 0.941-0.243 14.33 9.555 28.659 19.104 42.989 28.659 11.411 7.597 23.782 14.56 35.43 21.856 11.648 7.277 22.534 14.88 30.97 23.328 11.629 11.616 25.094 22.867 37.651 34.362 12.563 11.469 24.16 23.181 32.070 35.085 6.573 9.811 11.898 22.88 16.666 36.672 4.806 13.805 9.088 28.288 14.278 41.286 7.181 17.933 16.070 34.816 23.77 51.507 6.31 13.645 11.763 27.123 15.136 40.832 1.146 9.658 1.997 19.398 2.445 29.254-0.678 7.514-2.093 15.245-3.629 23.008-1.030 5.312-2.112 10.618-2.957 15.936-3.994-2.381-7.808-4.794-11.712-7.27-7.93-5.030-16.256-10.323-26.854-15.616-7.117-3.565-13.971-5.709-20.602-6.861-6.637-1.165-12.986-1.382-19.379-1.389-5.133 0-10.323 0.147-15.885 0.147-4.557 0-8.723-0.326-12.646-0.672-3.936-0.346-7.597-0.749-11.392-0.755-2.797-0.019-5.747 0.179-8.947 1.21zM584.486 427.072c-0.013 0.006-0.026 0.013-0.038 0.019l0.038-0.019zM619.232 204.109c-0.006 0-0.006 0 0 0v0 0zM282.182 315.725v0l-0.006 0.006-0.314 0.198c-0.384 0.205-1.248 0.525-2.528 0.736-1.28 0.218-2.944 0.333-4.819 0.333-3.085 0.006-6.701-0.307-10.336-0.666-3.661-0.346-7.29-0.749-10.944-0.755-4.678 0.038-9.024 1.12-13.773 2.637-8.237 2.694-17.536 7.021-27.514 12.019-14.906 7.488-31.181 16.499-45.363 23.533-6.842 3.398-13.178 6.304-18.458 8.333 1.715-3.821 3.872-8.224 6.355-12.928 5.715-10.861 12.845-23.136 18.893-33.485 3.027-5.184 5.786-9.888 7.994-13.766 1.107-1.939 2.074-3.674 2.886-5.203 0.819-1.542 1.466-2.803 2.042-4.154 0.55-1.376 2.131-3.776 4.493-6.381 3.526-3.955 8.64-8.429 13.773-12.704 5.152-4.326 10.266-8.403 14.349-12.461 11.482-11.482 22.963-22.963 34.445-34.445 14.278 7.142 28.563 14.278 42.842 21.421 3.366 1.683 6.547 2.931 9.299 3.968 3.053 1.126 5.594 2.106 7.085 2.81-0.166 0.403-0.365 0.858-0.634 1.402v-0.006c-9.914 19.853-19.84 39.706-29.766 59.558zM140.819 462.733v0c5.907-17.722 11.808-35.437 17.715-53.152 1.21-0.307 3.648-0.653 6.528-0.608 3.578-0.006 7.789 0.346 11.782 0.73 1.043 0.096 2.003 0.186 3.002 0.282 0.544 1.261 1.146 2.477 1.869 3.584 2.106 3.27 4.781 5.805 7.584 7.859 4.922 3.578 10.304 5.869 15.603 7.853 7.917 2.906 15.859 5.107 20.883 7.366 1.939 0.838 3.354 1.696 4.090 2.253l-0.109 0.262v-0.006c-9.28 18.56-24.858 49.709-34.131 68.269l0.045 0.019c-0.826 1.645-1.203 3.43-1.19 4.832 0.013 1.882 0.429 3.213 0.819 4.218 0.794 1.926 1.574 2.886 2.285 3.795 1.331 1.619 2.63 2.81 4.122 4.141 2.579 2.266 5.69 4.704 9.005 7.296 4.947 3.859 10.33 8.038 14.157 11.507 1.216 1.094 2.24 2.106 3.021 2.944l-1.914 4.813 8.269 4.25c10.79 5.53 20.147 8.243 28.787 8.262 4.666 0.006 9.069-0.838 12.986-2.4 6.893-2.733 11.968-7.462 15.712-12.269 5.613-7.251 8.96-15.002 12.051-20.32 0.806-1.434 1.581-2.65 2.278-3.629 0.115 0.090 0.205 0.16 0.326 0.256 6.349 4.87 16.352 11.974 24.819 18.093 4.224 3.046 8.051 5.837 10.707 7.859 0.192 0.147 0.333 0.256 0.512 0.397 0 20.717 0 41.44 0 62.157 0.038 0.96-0.448 3.757-1.734 7.309-2.214 6.285-6.547 14.982-11.789 24.512-7.866 14.349-17.734 30.726-25.779 46.144-4.026 7.725-7.603 15.206-10.272 22.285-2.643 7.11-4.506 13.734-4.55 20.518 0.006 3.629 0.589 7.443 2.413 11.11v0c9.926 19.853 19.853 39.706 29.779 59.558v0c3.232 6.47 4.083 13.395 4.083 21.882 0 1.203-0.064 2.541-0.090 3.795-7.597-3.802-15.194-7.597-22.797-11.398-2.848-1.414-6.048-2.65-9.606-4.032-5.293-2.035-11.264-4.294-16.058-6.592-2.387-1.139-4.467-2.298-5.901-3.277-0.717-0.486-1.261-0.928-1.6-1.235l-0.346-0.352-0.051-0.064c-19.046-28.57-38.086-57.133-57.133-85.702-15.949-23.93-32.986-41.805-52.826-61.638-7.603-7.52-14.406-20-20.41-33.67-4.774-10.771-9.139-22.144-13.805-32.608 0.416-0.493 0.87-0.986 1.229-1.485 2.17-3.053 3.584-6.189 4.864-9.389 1.882-4.781 3.36-9.754 4.838-14.067 1.421-4.282 3.008-7.936 3.955-9.229l-7.674-16.013c-2.957-0.218-6.323-0.563-9.958-0.787 0.102-4.23 1.088-10.944 2.72-18.394 2.592-12 6.618-25.965 10.080-37.152 1.734-5.6 3.328-10.509 4.538-14.17 1.216-3.686 2.022-6.029 2.266-6.771zM147.2 674.477c18.048 18.163 32.851 34.131 46.752 54.982 18.541 27.808 37.082 55.616 55.616 83.43-6.835-5.971-13.542-12.083-19.962-18.496-34.349-34.355-62.362-74.97-82.406-119.917zM548.243 904.275c-13.139 4.051-25.99 7.123-36.243 7.085-9.197 0.038-20.87-2.739-32.838-6.432-12.006-3.667-24.288-8.154-35.77-11.034-14.579-3.648-29.158-7.29-43.744-10.938 15.11-5.037 30.227-10.074 45.338-15.11 7.296-2.432 12.89-4.262 17.254-5.408 4.384-1.152 7.424-1.6 9.978-1.6 3.040 0.019 5.798 0.55 10.323 2.253 4.48 1.696 10.445 4.595 18.694 8.723 12.198 6.086 22.221 11.661 33.254 15.91 11.008 4.25 23.002 6.906 37.702 6.88 2.17 0 4.339 0 6.509 0-9.933 2.944-20.269 6.56-30.458 9.67zM794.387 794.394c-37.523 37.517-82.496 67.507-132.454 87.763l-0.986-8.032c-29.581 0-59.162 0-88.742 0-12.384-0.032-21.171-2.022-30.374-5.523-9.171-3.501-18.803-8.781-31.43-15.11-8.326-4.154-14.643-7.283-20.57-9.549-5.875-2.253-11.629-3.61-17.606-3.59-5.005 0-9.882 0.883-15.187 2.272-5.325 1.402-11.181 3.341-18.522 5.786-26.234 8.742-52.467 17.491-78.701 26.234l0.256 6.72c-33.818-13.926-65.267-32.384-93.677-54.586 4.966 2.432 10.227 4.518 14.938 6.342 2.458 0.947 4.755 1.824 6.707 2.598 1.946 0.774 3.565 1.472 4.493 1.939 12.41 6.208 24.826 12.41 37.235 18.618l14.816 7.411v-16.57c-0.006-6.413 0.461-13.114 0.467-20.179 0.006-9.715-0.941-20.422-6.246-31.034v0c-9.926-19.853-19.853-39.706-29.779-59.558v-0.006l-0.128-0.442c-0.064-0.314-0.122-0.819-0.122-1.504-0.019-1.946 0.55-5.28 1.843-9.312 2.24-7.098 6.541-16.294 11.757-26.118 7.821-14.778 17.632-31.046 25.626-45.779 4-7.386 7.558-14.381 10.234-20.851 1.338-3.245 2.458-6.355 3.283-9.414 0.819-3.066 1.376-6.074 1.382-9.286 0-22.253 0-44.512 0-66.765-0.077-2.797-0.813-4.013-1.216-4.883-0.89-1.6-1.382-2.016-1.811-2.522-0.794-0.845-1.363-1.318-2.042-1.901-1.242-1.043-2.739-2.202-4.557-3.571-6.291-4.73-16.282-11.808-24.723-17.933-4.205-3.053-8.026-5.869-10.643-7.91-1.299-1.011-2.317-1.85-2.778-2.266l-0.205-0.186-1.389 1.421 1.466-1.344-5.395 4.966-1.728 1.139-0.531 0.224h-0.096l-1.427-10.266c-0.019 0-0.051 0.013-0.070 0.013v-0.006c-0.045 0.006-0.083 0.019-0.128 0.026-0.346 0.051-0.736 0.134-1.165 0.256-3.514 0.736-6.656 2.349-9.062 4.294-4.749 3.891-7.43 8.474-9.939 12.877-3.642 6.637-6.79 13.28-10.349 17.517-1.76 2.131-3.494 3.629-5.306 4.602-1.83 0.966-3.776 1.562-6.765 1.581-3.475 0.013-8.518-1.005-15.277-4.013-1.146-2.355-2.477-4.051-3.91-5.728-2.746-3.117-6.035-6.022-9.568-8.973-5.274-4.384-11.085-8.755-15.398-12.218-0.685-0.55-1.312-1.062-1.907-1.555 9.37-18.739 22.771-45.542 31.11-62.221v-0.006c1.536-3.072 2.554-6.445 2.554-10.035 0.006-2.374-0.474-4.774-1.357-6.906-1.67-4.038-4.467-6.874-7.226-8.928-4.896-3.584-10.182-5.536-15.578-7.45-4.038-1.402-8.122-2.669-11.904-3.987-5.67-1.939-10.65-4.134-13.306-6.176-1.35-1.005-2.086-1.875-2.445-2.496-0.352-0.646-0.493-1.030-0.518-2.029v-10.24h-10.24c-1.555 0.019-5.184-0.326-9.28-0.73-4.147-0.39-8.909-0.819-13.734-0.826-4.346 0.026-8.71 0.282-13.248 1.722-2.266 0.742-4.627 1.824-6.88 3.654-2.24 1.805-4.282 4.518-5.286 7.629l-0.506 1.517c-5.914 17.747-11.827 35.494-17.747 53.242v0c-0.243 0.723-1.69 4.941-3.648 10.976-1.069 3.302-2.31 7.181-3.61 11.411 2.682-32.39 9.216-63.661 19.162-93.389 1.152 0.294 2.266 0.454 3.245 0.448 4.678-0.038 9.024-1.12 13.773-2.637 8.237-2.694 17.536-7.021 27.514-12.019 14.906-7.488 31.181-16.499 45.363-23.533 7.072-3.514 13.626-6.522 19.014-8.55 2.688-1.018 5.082-1.786 7.008-2.266 1.92-0.486 3.398-0.653 4.038-0.646 1.984-0.013 5.274 0.301 8.979 0.666 3.731 0.358 7.93 0.755 12.301 0.755 4.333-0.019 8.87-0.346 13.562-1.978 2.336-0.826 4.723-2.029 6.925-3.802 2.195-1.754 4.154-4.109 5.498-6.816v0c9.926-19.853 19.853-39.706 29.779-59.558v-0.006c1.907-3.872 3.238-7.648 3.277-12.006 0.006-2.176-0.403-4.474-1.261-6.56-1.51-3.706-4.179-6.323-6.592-8-3.693-2.534-7.155-3.738-10.547-5.050-3.386-1.267-6.707-2.49-9.786-4.032-16.32-8.16-32.646-16.32-48.966-24.48 69.261-57.754 158.31-92.525 255.584-92.531 46.432 0 90.963 8.006 132.403 22.566-2.035 1.094-3.942 2.227-5.696 3.309-3.232 2.022-6.106 3.866-7.373 4.474-15.629 7.814-31.258 15.629-46.886 23.443-1.664 0.838-2.752 1.85-3.539 2.726-1.459 1.67-2.074 3.008-2.63 4.25-0.902 2.15-1.402 4.134-1.862 6.323-1.306 6.438-1.901 14.496-1.92 21.779 0.006 3.411 0.134 6.586 0.499 9.478 0.192 1.466 0.422 2.848 0.864 4.384 0.23 0.774 0.506 1.587 0.966 2.554 0.474 0.954 1.094 2.093 2.406 3.43 2.266 2.163 4.077 2.784 5.645 3.366 2.362 0.774 4.461 1.082 6.752 1.325 2.272 0.224 4.666 0.314 7.168 0.314 5.997-0.006 12.582-0.525 18.438-1.459 2.938-0.48 5.67-1.043 8.23-1.824 1.286-0.397 2.534-0.845 3.846-1.466 1.312-0.653 2.714-1.382 4.384-3.008l0.006-0.006c5.069-5.069 10.138-10.138 15.206-15.206 0 0.23-0.013 0.467-0.013 0.698 0.006 2.733 0.109 5.318 0.525 7.942 0.218 1.325 0.506 2.662 1.062 4.173 0.576 1.491 1.363 3.258 3.219 5.152 1.894 1.856 3.661 2.637 5.146 3.213 2.253 0.813 4.166 1.101 6.138 1.318 1.958 0.198 3.936 0.269 5.978 0.269 0.23 0 0.48-0.026 0.71-0.026-5.050 5.050-10.106 10.106-15.155 15.155-0.083 0.077-0.998 0.538-2.63 0.826-1.664 0.32-3.974 0.493-6.554 0.486-3.718 0-7.974-0.333-12.051-0.704-4.115-0.358-7.949-0.768-11.584-0.781-1.907 0.013-5.594-0.32-9.76-0.704-4.205-0.371-8.998-0.781-13.882-0.781-3.866 0.006-7.795 0.237-11.77 1.133-3.923 0.922-8.166 2.496-11.834 6.112l0.006-0.006c-11.494 11.494-22.989 22.989-34.477 34.477l-7.238 7.238 7.238 7.238c10.675 10.675 21.344 21.344 32.019 32.019-10.886 21.773-21.773 43.546-32.659 65.318l0.019-0.038c-0.998 1.99-1.248 3.878-1.248 5.318 0.026 2.33 0.525 3.84 0.998 5.171 0.934 2.438 2.093 4.307 3.443 6.336 2.362 3.475 5.402 7.155 8.845 10.95 5.158 5.677 11.142 11.501 16.685 16.154 2.784 2.33 5.427 4.358 8.045 6.010 1.318 0.826 2.624 1.568 4.128 2.221 1.536 0.614 3.194 1.299 6.054 1.357 1.434 0 3.309-0.25 5.242-1.203l0.038-0.019c13.619-6.81 27.245-13.619 40.864-20.429 0.32-0.166 1.146-0.531 2.202-0.954 3.757-1.53 10.234-3.821 16.326-6.502 3.072-1.357 6.074-2.803 8.877-4.538 1.408-0.877 2.765-1.824 4.115-2.995 1.331-1.19 2.707-2.586 3.917-4.73 2.259-4.115 3.366-8.435 4.083-12.934 0.698-4.506 0.934-9.229 0.941-14.106-0.006-8.365-0.73-17.171-1.53-25.466 18.016 18.016 36.032 36.032 54.048 54.048v0c2.65 2.598 5.459 3.558 7.75 4.109 2.342 0.531 4.435 0.64 6.502 0.646 4.365-0.013 8.691-0.589 12.8-1.088 2.912-0.365 5.69-0.685 7.917-0.838 0 19.232 0 38.464 0 57.696-1.734 0.838-4.307 1.869-7.443 2.925-6.125 2.086-14.272 4.326-23.053 6.477-13.184 3.245-27.859 6.336-40.070 8.819-6.106 1.242-11.603 2.336-16.026 3.232-4.454 0.902-7.706 1.568-9.837 2.099-2.963 0.749-6.093 1.83-9.562 3.053-5.165 1.83-10.97 3.974-16.339 5.613-2.682 0.819-5.242 1.504-7.462 1.958-2.214 0.461-4.115 0.672-5.267 0.666-0.71 0.006-1.12-0.077-1.12-0.083l-0.435-0.173c-1.094-0.461-3.635-2.259-6.362-4.89-4.154-3.942-8.941-9.594-13.395-15.034-2.234-2.726-4.397-5.408-6.445-7.859-2.054-2.458-3.962-4.666-5.888-6.598l-7.245-7.238-7.238 7.238c-24.576 24.582-49.158 49.158-73.734 73.741-1.69 1.69-2.605 3.635-3.066 5.216-0.467 1.613-0.563 2.957-0.57 4.147 0.013 2.016 0.307 3.68 0.691 5.35 0.736 3.104 1.882 6.234 3.334 9.709 5.062 12.013 14.106 28.077 23.040 42.566 4.461 7.226 8.877 13.997 12.742 19.558 1.933 2.784 3.731 5.261 5.363 7.379 1.651 2.131 3.072 3.859 4.614 5.414 14.112 14.118 24.346 28.058 33.51 43.27 9.152 15.2 17.197 31.725 26.63 50.605 0.986 1.971 1.446 4.371 1.453 7.725 0.006 2.618-0.307 5.702-0.685 9.12-0.365 3.418-0.8 7.162-0.8 11.232 0 4.307 0.499 9.094 2.458 13.939 2.016 4.922 5.062 8.986 8.454 12.826 5.114 5.722 11.213 10.912 16.922 15.674 5.683 4.717 11.034 9.050 14.106 12.141l10.042 10.048 6.355-12.71c36.813-73.619 73.619-147.245 110.432-220.864 2.016-4.058 3.117-8.314 3.789-12.634 0.666-4.32 0.89-8.742 0.89-13.184 0-7.315-0.614-14.701-1.203-21.446-0.589-6.72-1.133-12.845-1.126-17.075-0.006-3.411 0.262-5.862 0.582-7.283 0.102-0.486 0.211-0.806 0.294-1.056l0.064-0.013c0.442-0.064 1.126-0.109 2.016-0.109 2.17-0.013 5.491 0.301 9.568 0.672 4.083 0.365 8.954 0.755 14.47 0.755 5.907 0 11.149-0.147 15.885-0.147 5.907 0 10.989 0.224 15.84 1.075 4.858 0.858 9.555 2.304 14.982 5.011 9.549 4.774 17.094 9.555 25.043 14.592 7.93 5.030 16.256 10.323 26.854 15.616l0.096 0.051c-10.598 91.712-52.186 173.946-114.17 235.942z",
          "M503.866 548.576v0l0.006-0.006z",
          "M518.131 137.888c0.909-3.949 1.139-7.846 1.146-11.68 0-4.864-0.416-9.632-0.794-13.85-0.384-4.186-0.723-7.898-0.71-9.958l-17.478-7.238c-12.41 12.41-24.826 24.826-37.235 37.235l-3.002 3.002v4.243c0 12.41 0 24.826 0 37.235l17.478 7.238c11.494-11.494 22.982-22.982 34.477-34.477 3.571-3.622 5.19-7.846 6.118-11.75zM498.182 133.248c-0.186 0.813-0.403 1.395-0.557 1.696l-0.141 0.256c-5.651 5.651-11.296 11.296-16.947 16.947 0-2.758 0-5.517 0-8.275 6.080-6.080 12.16-12.16 18.24-18.24 0 0.179 0.019 0.39 0.019 0.57 0.006 2.886-0.23 5.421-0.614 7.046z"
        ],
        "attrs": [
          {},
          {},
          {},
          {},
          {},
          {}
        ],
        "isMulticolor": false,
        "isMulticolor2": false,
        "grid": 0,
        "tags": [
          "Duality.vec-17"
        ]
      },
      "attrs": [
        {},
        {},
        {},
        {},
        {},
        {}
      ],
      "properties": {
        "order": 20,
        "id": 16,
        "name": "globe-outline",
        "prevSize": 32,
        "code": 103
      },
      "setIdx": 0,
      "setId": 0,
      "iconIdx": 16
    },
    {
      "icon": {
        "paths": [
          "M596.051 148.698l-0.013-0.013z",
          "M639.776 842.63l-0.006-0.013v-0.006z",
          "M931.814 485.19c0-4.87-0.352-9.843-1.203-14.861v-0.006c-0.55-3.219-1.242-6.381-1.99-9.51-25.274-207.712-202.086-368.646-416.621-368.653-231.878 0.006-419.834 187.962-419.84 419.84 0 21.843 1.677 43.29 4.89 64.23h-2.688l4.179 8.358c34.406 197.261 206.349 347.245 413.459 347.251 231.878-0.006 419.834-187.962 419.84-419.84 0-5.805-0.205-11.565-0.442-17.312 0.256-3.117 0.41-6.285 0.416-9.498zM307.258 512.141v0 0zM147.2 674.477c18.048 18.163 32.851 34.131 46.752 54.982 18.541 27.808 37.082 55.616 55.616 83.43-6.835-5.971-13.542-12.083-19.962-18.496-34.349-34.355-62.362-74.97-82.406-119.917zM794.387 794.394c-37.523 37.517-82.496 67.507-132.454 87.763l-0.986-8.032c-29.581 0-59.162 0-88.742 0-12.384-0.032-21.171-2.022-30.374-5.523-9.171-3.501-18.803-8.781-31.43-15.11-8.326-4.154-14.643-7.283-20.57-9.549-5.875-2.253-11.629-3.61-17.606-3.59-5.005 0-9.882 0.883-15.187 2.272-5.325 1.402-11.181 3.341-18.522 5.786-26.234 8.742-52.467 17.491-78.701 26.234l0.256 6.72c-33.818-13.926-65.267-32.384-93.677-54.586 4.966 2.432 10.227 4.518 14.938 6.342 2.458 0.947 4.755 1.824 6.707 2.598 1.946 0.774 3.565 1.472 4.493 1.939 12.41 6.208 24.826 12.41 37.235 18.618l14.816 7.411v-16.57c-0.006-6.413 0.461-13.114 0.467-20.179 0.006-9.715-0.941-20.422-6.246-31.034v0c-9.926-19.853-19.853-39.706-29.779-59.558v-0.006l-0.128-0.442c-0.064-0.314-0.122-0.819-0.122-1.504-0.019-1.946 0.55-5.28 1.843-9.312 2.24-7.098 6.541-16.294 11.757-26.118 7.821-14.778 17.632-31.046 25.626-45.779 4-7.386 7.558-14.381 10.234-20.851 1.338-3.245 2.458-6.355 3.283-9.414 0.819-3.066 1.376-6.074 1.382-9.286 0-22.253 0-44.512 0-66.765-0.077-2.797-0.813-4.013-1.216-4.883-0.89-1.6-1.382-2.016-1.811-2.522-0.794-0.845-1.363-1.318-2.042-1.901-1.242-1.043-2.739-2.202-4.557-3.571-6.291-4.73-16.282-11.808-24.723-17.933-4.205-3.053-8.026-5.869-10.643-7.91-1.299-1.011-2.317-1.85-2.778-2.266l-0.205-0.186-1.389 1.421 1.466-1.344-5.395 4.966-1.734 1.139 8.659-3.635-9.19 3.859h-0.096l-1.427-10.266c-0.019 0-0.051 0.013-0.070 0.013v-0.006c-0.045 0.006-0.083 0.019-0.128 0.026-0.346 0.051-0.736 0.134-1.165 0.256-3.514 0.736-6.656 2.349-9.062 4.294-4.749 3.891-7.43 8.474-9.939 12.877-3.642 6.637-6.79 13.28-10.349 17.517-1.76 2.131-3.494 3.629-5.306 4.602-1.83 0.966-3.776 1.562-6.765 1.581-3.475 0.013-8.518-1.005-15.277-4.013-1.146-2.355-2.477-4.051-3.91-5.728-2.746-3.117-6.035-6.022-9.568-8.973-5.274-4.384-11.085-8.755-15.398-12.218-0.685-0.55-1.312-1.062-1.907-1.555 9.37-18.739 22.771-45.542 31.11-62.221v-0.006c1.536-3.072 2.554-6.445 2.554-10.035 0.006-2.374-0.474-4.774-1.357-6.906-1.67-4.038-4.467-6.874-7.226-8.928-4.896-3.584-10.182-5.536-15.578-7.45-4.038-1.402-8.122-2.669-11.904-3.987-5.67-1.939-10.65-4.134-13.306-6.176-1.35-1.005-2.086-1.875-2.445-2.496-0.352-0.646-0.493-1.030-0.518-2.029v-10.24h-10.24c-1.555 0.019-5.184-0.326-9.28-0.73-4.147-0.39-8.909-0.819-13.734-0.826-4.346 0.026-8.71 0.282-13.248 1.722-2.266 0.742-4.627 1.824-6.88 3.654-2.24 1.805-4.282 4.518-5.286 7.629l-0.506 1.517c-5.914 17.747-11.827 35.494-17.747 53.242v0c-0.243 0.723-1.69 4.941-3.648 10.976-1.069 3.302-2.31 7.181-3.61 11.411 2.682-32.39 9.216-63.661 19.162-93.389 1.152 0.294 2.266 0.454 3.245 0.448 4.678-0.038 9.024-1.12 13.773-2.637 8.237-2.694 17.536-7.021 27.514-12.019 14.906-7.488 31.181-16.499 45.363-23.533 7.072-3.514 13.626-6.522 19.014-8.55 2.688-1.018 5.082-1.786 7.008-2.266 1.92-0.486 3.398-0.653 4.038-0.646 1.984-0.013 5.274 0.301 8.979 0.666 3.731 0.358 7.93 0.755 12.301 0.755 4.333-0.019 8.87-0.346 13.562-1.978 2.336-0.826 4.723-2.029 6.925-3.802 2.195-1.754 4.154-4.109 5.498-6.816v0c9.926-19.853 19.853-39.706 29.779-59.558v-0.006c1.907-3.872 3.238-7.648 3.277-12.006 0.006-2.176-0.403-4.474-1.261-6.56-1.51-3.706-4.179-6.323-6.592-8-3.693-2.534-7.155-3.738-10.547-5.050-3.386-1.267-6.707-2.49-9.786-4.032-16.32-8.16-32.646-16.32-48.966-24.48 69.267-57.754 158.317-92.525 255.59-92.531 46.432 0 90.963 8.006 132.403 22.566-2.035 1.094-3.942 2.227-5.696 3.309-3.232 2.022-6.106 3.866-7.373 4.474-15.629 7.814-31.258 15.629-46.886 23.443-1.664 0.838-2.752 1.85-3.539 2.726-1.459 1.67-2.074 3.008-2.63 4.25-0.902 2.15-1.402 4.134-1.862 6.323-1.306 6.438-1.901 14.496-1.92 21.779 0.006 3.411 0.134 6.586 0.499 9.478 0.192 1.466 0.422 2.848 0.864 4.384 0.23 0.774 0.506 1.587 0.966 2.554 0.474 0.954 1.094 2.093 2.406 3.43 2.266 2.163 4.077 2.784 5.645 3.366 2.362 0.774 4.461 1.082 6.752 1.325 2.272 0.224 4.666 0.314 7.168 0.314 5.997-0.006 12.582-0.525 18.438-1.459 2.938-0.48 5.67-1.043 8.23-1.824 1.286-0.397 2.534-0.845 3.846-1.466 1.312-0.653 2.714-1.382 4.384-3.008l0.006-0.006c5.069-5.069 10.138-10.138 15.206-15.206 0 0.23-0.013 0.467-0.013 0.698 0.006 2.733 0.109 5.318 0.525 7.942 0.218 1.325 0.506 2.662 1.062 4.173 0.576 1.491 1.363 3.258 3.219 5.152 1.894 1.856 3.661 2.637 5.146 3.213 2.253 0.813 4.166 1.101 6.138 1.318 1.958 0.198 3.936 0.269 5.978 0.269 0.23 0 0.48-0.026 0.71-0.026-5.050 5.050-10.106 10.106-15.155 15.155-0.083 0.077-0.998 0.538-2.63 0.826-1.664 0.32-3.974 0.493-6.554 0.486-3.718 0-7.974-0.333-12.051-0.704-4.115-0.358-7.949-0.768-11.584-0.781-1.907 0.013-5.594-0.32-9.76-0.704-4.205-0.371-8.998-0.781-13.882-0.781-3.866 0.006-7.795 0.237-11.77 1.133-3.923 0.922-8.166 2.496-11.834 6.112l0.006-0.006c-11.494 11.494-22.989 22.989-34.477 34.477l-7.238 7.238 7.238 7.238c10.675 10.675 21.344 21.344 32.019 32.019-10.886 21.773-21.773 43.546-32.659 65.318l0.019-0.038c-0.998 1.99-1.248 3.878-1.248 5.318 0.026 2.33 0.525 3.84 0.998 5.171 0.934 2.438 2.093 4.307 3.443 6.336 2.362 3.475 5.402 7.155 8.845 10.95 5.158 5.677 11.142 11.501 16.685 16.154 2.784 2.33 5.427 4.358 8.045 6.010 1.318 0.826 2.624 1.568 4.128 2.221 1.536 0.614 3.194 1.299 6.054 1.357 1.434 0 3.309-0.25 5.242-1.203l0.038-0.019c13.619-6.81 27.245-13.619 40.864-20.429 0.32-0.166 1.146-0.531 2.202-0.954 3.757-1.53 10.234-3.821 16.326-6.502 3.072-1.357 6.074-2.803 8.877-4.538 1.408-0.877 2.765-1.824 4.115-2.995 1.331-1.19 2.707-2.586 3.917-4.73 2.259-4.115 3.366-8.435 4.083-12.934 0.698-4.506 0.934-9.229 0.941-14.106-0.006-8.365-0.73-17.171-1.53-25.466 18.016 18.016 36.032 36.032 54.048 54.048v0c2.65 2.598 5.459 3.558 7.75 4.109 2.342 0.531 4.435 0.64 6.502 0.646 4.365-0.013 8.691-0.589 12.8-1.088 2.912-0.365 5.69-0.685 7.917-0.838 0 19.232 0 38.464 0 57.696-1.734 0.838-4.307 1.869-7.443 2.925-6.125 2.086-14.272 4.326-23.053 6.477-13.184 3.245-27.859 6.336-40.070 8.819-6.106 1.242-11.603 2.336-16.026 3.232-4.454 0.902-7.706 1.568-9.837 2.099-2.963 0.749-6.093 1.83-9.562 3.053-5.165 1.83-10.97 3.974-16.339 5.613-2.682 0.819-5.242 1.504-7.462 1.958-2.214 0.461-4.115 0.672-5.267 0.666-0.71 0.006-1.12-0.077-1.12-0.083l-0.435-0.173c-1.094-0.461-3.635-2.259-6.362-4.89-4.154-3.942-8.941-9.594-13.395-15.034-2.234-2.726-4.397-5.408-6.445-7.859-2.054-2.458-3.962-4.666-5.888-6.598l-7.245-7.238-7.238 7.238c-24.576 24.582-49.158 49.158-73.734 73.741-1.69 1.69-2.605 3.635-3.066 5.216-0.467 1.613-0.563 2.957-0.57 4.147 0.013 2.016 0.307 3.68 0.691 5.35 0.736 3.104 1.882 6.234 3.334 9.709 5.062 12.013 14.106 28.077 23.040 42.566 4.461 7.226 8.877 13.997 12.742 19.558 1.933 2.784 3.731 5.261 5.363 7.379 1.651 2.131 3.072 3.859 4.614 5.414 14.112 14.118 24.346 28.058 33.51 43.27 9.152 15.2 17.197 31.725 26.63 50.605 0.986 1.971 1.446 4.371 1.453 7.725 0.006 2.618-0.307 5.702-0.685 9.12-0.365 3.418-0.8 7.162-0.8 11.232 0 4.307 0.499 9.094 2.458 13.939 2.016 4.922 5.062 8.986 8.454 12.826 5.114 5.722 11.213 10.912 16.922 15.674 5.683 4.717 11.034 9.050 14.106 12.141l10.042 10.048 6.355-12.71c36.813-73.619 73.619-147.245 110.432-220.864 2.016-4.058 3.117-8.314 3.789-12.634 0.666-4.32 0.89-8.742 0.89-13.184 0-7.315-0.614-14.701-1.203-21.446-0.589-6.72-1.133-12.845-1.126-17.075-0.006-3.411 0.262-5.862 0.582-7.283 0.102-0.486 0.211-0.806 0.294-1.056l0.064-0.013c0.442-0.064 1.126-0.109 2.016-0.109 2.17-0.013 5.491 0.301 9.568 0.672 4.083 0.365 8.954 0.755 14.47 0.755 5.907 0 11.149-0.147 15.885-0.147 5.907 0 10.989 0.224 15.84 1.075 4.858 0.858 9.555 2.304 14.982 5.011 9.549 4.774 17.094 9.555 25.043 14.592 7.93 5.030 16.256 10.323 26.854 15.616l0.096 0.051c-10.598 91.712-52.186 173.946-114.17 235.942z",
          "M503.866 548.576v0l0.006-0.006z",
          "M689.139 148.698l-0.006-0.006v-0.006z",
          "M518.131 137.888c0.909-3.949 1.139-7.846 1.146-11.68 0-4.864-0.416-9.632-0.794-13.85-0.384-4.186-0.723-7.898-0.71-9.958l-17.478-7.238c-12.41 12.41-24.826 24.826-37.235 37.235l-3.002 3.002v4.243c0 12.41 0 24.826 0 37.235l17.478 7.238c11.494-11.494 22.982-22.982 34.477-34.477 3.571-3.622 5.19-7.846 6.118-11.75z"
        ],
        "attrs": [
          {},
          {},
          {},
          {},
          {},
          {}
        ],
        "isMulticolor": false,
        "isMulticolor2": false,
        "grid": 0,
        "tags": [
          "Duality.vec-18"
        ]
      },
      "attrs": [
        {},
        {},
        {},
        {},
        {},
        {}
      ],
      "properties": {
        "order": 19,
        "id": 15,
        "name": "globe",
        "prevSize": 32,
        "code": 71
      },
      "setIdx": 0,
      "setId": 0,
      "iconIdx": 17
    },
    {
      "icon": {
        "paths": [
          "M488.819 512.896c-0.032 43.949 11.085 77.882 28.134 103.405 12.762 19.149 28.736 33.504 45.325 44.16 24.909 15.994 51.174 23.821 71.264 27.757 20.096 3.93 34.074 3.949 34.56 3.949 0.851-0.058 44.371 0.064 89.094-22.208 22.33-11.155 45.018-28.115 62.048-53.664 17.050-25.523 28.16-59.456 28.134-103.405 0.032-43.942-11.085-77.882-28.134-103.405-12.762-19.149-28.736-33.504-45.325-44.16-24.909-15.994-51.174-23.821-71.258-27.757-20.096-3.93-34.074-3.949-34.56-3.949-0.858 0.058-44.371-0.064-89.094 22.208-22.33 11.155-45.018 28.115-62.048 53.664-17.056 25.523-28.173 59.456-28.141 103.405zM573.35 382.554c21.888-14.093 45.766-21.306 64.122-24.89 9.171-1.792 16.947-2.688 22.374-3.136 2.714-0.224 4.832-0.333 6.253-0.384 0.71-0.026 1.242-0.038 1.574-0.045l0.365-0.006h0.064c0.563-0.051 41.466 0.422 80.87 20.518 19.763 10.048 39.098 24.813 53.574 46.752 14.458 21.958 24.32 51.27 24.346 91.526-0.032 40.57-10.048 70.029-24.691 92.045-11.008 16.506-24.749 28.896-39.36 38.291-21.894 14.093-45.766 21.306-64.122 24.89-9.171 1.792-16.947 2.688-22.374 3.136-2.714 0.224-4.832 0.333-6.253 0.384-0.71 0.026-1.242 0.038-1.574 0.045l-0.365 0.006h-0.070c-0.589 0.051-41.478-0.429-80.864-20.518-19.763-10.048-39.098-24.813-53.574-46.752-14.458-21.958-24.32-51.27-24.346-91.526 0.032-40.57 10.048-70.029 24.691-92.045 11.008-16.499 24.749-28.89 39.36-38.291z",
          "M608.627 596.256c13.734 8.813 28.026 13.043 38.938 15.187 10.918 2.131 18.515 2.15 18.995 2.157 0.851-0.058 24.192 0.064 48.736-12.122 12.243-6.112 24.838-15.501 34.304-29.696 9.478-14.176 15.546-32.973 15.52-56.742 0.032-23.77-6.035-42.566-15.52-56.742-7.085-10.637-15.968-18.605-25.107-24.474-13.734-8.813-28.026-13.043-38.938-15.187-10.918-2.131-18.515-2.15-18.995-2.157-0.858 0.058-24.192-0.064-48.742 12.122-12.243 6.112-24.838 15.501-34.304 29.696-9.478 14.176-15.546 32.973-15.52 56.742-0.032 23.77 6.035 42.566 15.52 56.742 7.091 10.637 15.968 18.598 25.114 24.474zM600.557 469.658c5.331-7.994 11.981-13.997 19.142-18.605 10.72-6.906 22.624-10.534 31.795-12.32 4.582-0.896 8.467-1.344 11.149-1.562 1.338-0.109 2.381-0.16 3.053-0.186l0.73-0.019h0.141c0.685-0.045 21.325 0.454 40.493 10.426 9.664 4.998 18.912 12.186 25.83 22.778 6.899 10.611 11.718 24.8 11.75 44.877-0.032 20.39-5.005 34.714-12.083 45.382-5.331 7.994-11.981 13.997-19.142 18.605-10.72 6.906-22.624 10.534-31.795 12.32-4.582 0.896-8.467 1.344-11.149 1.562-1.338 0.109-2.381 0.16-3.053 0.186l-0.73 0.019h-0.141c-0.685 0.045-21.325-0.454-40.493-10.426-9.664-4.998-18.912-12.186-25.83-22.778-6.899-10.611-11.718-24.8-11.75-44.877 0.032-20.39 5.005-34.714 12.083-45.382z",
          "M522.24 149.76h-373.76v76.8h-117.76v609.28h962.56v-609.28h-471.040v-76.8zM501.76 170.24v56.32h-332.8v-56.32h332.8zM972.8 247.040v568.32h-921.6v-568.32h921.6z",
          "M144.339 296.55v89.645h183.386v-99.885h-183.386v10.24zM307.245 365.715h-142.426v-58.925h142.426v58.925z"
        ],
        "attrs": [
          {},
          {},
          {},
          {}
        ],
        "isMulticolor": false,
        "isMulticolor2": false,
        "grid": 0,
        "tags": [
          "Duality.vec-19"
        ]
      },
      "attrs": [
        {},
        {},
        {},
        {}
      ],
      "properties": {
        "order": 18,
        "id": 14,
        "name": "camera-outline",
        "prevSize": 32,
        "code": 99
      },
      "setIdx": 0,
      "setId": 0,
      "iconIdx": 18
    },
    {
      "icon": {
        "paths": [
          "M595.104 428.602c-12.243 6.112-24.838 15.501-34.304 29.696-9.478 14.176-15.546 32.973-15.52 56.742-0.032 23.77 6.035 42.566 15.52 56.742 7.085 10.637 15.968 18.605 25.107 24.474 13.734 8.813 28.026 13.043 38.938 15.187 10.918 2.131 18.515 2.15 18.995 2.157 0.851-0.058 24.192 0.064 48.736-12.122 12.243-6.112 24.838-15.501 34.304-29.696 9.478-14.176 15.546-32.973 15.52-56.742 0.032-23.77-6.035-42.566-15.52-56.742-7.085-10.637-15.968-18.605-25.107-24.474-13.734-8.813-28.026-13.043-38.938-15.187-10.918-2.131-18.515-2.15-18.995-2.157-0.851 0.058-24.192-0.064-48.736 12.122z",
          "M528.64 149.76h-373.76v76.8h-117.76v609.28h962.56v-609.28h-471.040v-76.8zM643.277 350.080c0.563-0.051 41.466 0.422 80.87 20.518 19.763 10.048 39.098 24.813 53.574 46.752 14.458 21.958 24.32 51.27 24.346 91.526-0.032 40.57-10.048 70.029-24.691 92.045-11.008 16.506-24.749 28.896-39.36 38.291-21.894 14.093-45.766 21.306-64.122 24.89-9.171 1.792-16.947 2.688-22.374 3.136-2.714 0.224-4.832 0.333-6.253 0.384-0.71 0.026-1.242 0.038-1.574 0.045l-0.365 0.006h-0.070c-0.57 0.051-41.472-0.422-80.864-20.518-19.763-10.048-39.098-24.813-53.574-46.752-14.458-21.958-24.32-51.27-24.346-91.526 0.032-40.57 10.048-70.029 24.691-92.045 11.008-16.506 24.749-28.896 39.36-38.291 21.888-14.093 45.766-21.306 64.122-24.89 9.171-1.792 16.947-2.688 22.374-3.136 2.714-0.224 4.832-0.333 6.253-0.384 0.71-0.026 1.242-0.038 1.574-0.045l0.365-0.006 0.064-0zM368.838 397.024h-142.426v-58.925h142.426v58.925z"
        ],
        "attrs": [
          {},
          {}
        ],
        "isMulticolor": false,
        "isMulticolor2": false,
        "grid": 0,
        "tags": [
          "Duality.vec-20"
        ]
      },
      "attrs": [
        {},
        {}
      ],
      "properties": {
        "order": 17,
        "id": 13,
        "name": "camera",
        "prevSize": 32,
        "code": 67
      },
      "setIdx": 0,
      "setId": 0,
      "iconIdx": 19
    },
    {
      "icon": {
        "paths": [
          "M743.814 129.754c-59.226-61.126-141.267-99.040-231.814-99.034-87.667-0.006-167.366 35.533-226.093 93.274-58.746 57.734-96.685 137.747-101.139 226.803l-0.013 0.192v0.218c0 0.019-0.134 13.12-0.134 23.386 0 2.438 0.006 4.717 0.026 6.643 0.006 0.858 0.019 1.606 0.032 2.317l-0.358 0.883v2.003c0 25.075 1.549 50.202 5.056 75.123 15.936 113.421 51.629 204.019 102.906 286.086 50.63 81.069 116.275 153.856 192.992 233.133v0.013l2.886 2.976c6.118 6.336 14.342 9.53 22.374 9.504 0.493 0 0.979-0.026 1.466-0.051 0.486 0.026 0.973 0.051 1.466 0.051 8.032 0.026 16.25-3.168 22.368-9.498l2.893-2.982v-0.013c76.717-79.283 142.362-152.064 192.992-233.133 51.277-82.074 86.963-172.666 102.906-286.086 3.507-24.928 5.056-50.054 5.056-75.123v-2.003l-0.371-0.915c0.211-4.998 0.378-10.010 0.371-15.066 0-93.139-36.614-177.581-95.866-238.701zM714.349 736.806c-49.92 79.968-115.501 152.557-193.216 232.717-2.227 2.272-4.864 3.258-7.667 3.283l-0.755-0.026-0.71-0.058-0.704 0.051-0.762 0.026c-2.803-0.026-5.44-1.011-7.661-3.27l-0.006-0.006c-77.715-80.16-143.296-152.749-193.216-232.717-49.914-79.987-84.378-167.341-99.994-278.099-3.27-23.232-4.749-46.758-4.826-70.342l0.493-1.21-0.115-2.272c-0.032-0.589-0.064-2.048-0.083-3.853-0.019-1.818-0.026-4.045-0.026-6.438 0-5.050 0.032-10.848 0.070-15.379 0.026-3.808 0.058-6.682 0.064-7.52 4.224-83.789 39.898-158.899 95.027-213.088 55.174-54.214 129.658-87.398 211.738-87.405 84.768 0.006 161.446 35.405 217.114 92.806 55.635 57.408 90.086 136.71 90.086 224.442 0 5.51-0.141 10.995-0.41 16.448l-0.115 2.266 0.493 1.21c-0.077 23.584-1.555 47.11-4.826 70.342-15.616 110.746-50.080 198.099-99.994 278.093z",
          "M512 157.722c-50.701-0.006-96.704 20.352-129.952 53.261-33.261 32.883-53.888 78.464-53.882 128.71-0.006 50.253 20.621 95.827 53.882 128.717 33.242 32.902 79.251 53.267 129.952 53.261 50.701 0.006 96.704-20.358 129.952-53.261 33.261-32.883 53.888-78.464 53.882-128.717 0.006-50.253-20.621-95.827-53.882-128.71-33.248-32.902-79.251-53.261-129.952-53.261zM627.552 453.85c-29.581 29.254-70.374 47.334-115.552 47.341-45.178-0.006-85.971-18.086-115.552-47.341-29.568-29.267-47.802-69.562-47.808-114.157 0.006-44.595 18.24-84.883 47.808-114.157 29.581-29.248 70.374-47.334 115.552-47.341 45.178 0.006 85.971 18.086 115.552 47.341 29.568 29.267 47.802 69.562 47.808 114.157-0.006 44.602-18.24 84.89-47.808 114.157z"
        ],
        "attrs": [
          {},
          {}
        ],
        "isMulticolor": false,
        "isMulticolor2": false,
        "grid": 0,
        "tags": [
          "Duality.vec-21"
        ]
      },
      "attrs": [
        {},
        {}
      ],
      "properties": {
        "order": 16,
        "id": 12,
        "name": "location-outline",
        "prevSize": 32,
        "code": 108
      },
      "setIdx": 0,
      "setId": 0,
      "iconIdx": 20
    },
    {
      "icon": {
        "paths": [
          "M743.814 129.754c-59.226-61.126-141.267-99.040-231.814-99.034-87.667-0.006-167.366 35.533-226.093 93.274-58.746 57.734-96.685 137.747-101.139 226.803l-0.013 0.218v0.186c0 0.019-0.134 13.126-0.134 23.386 0 2.438 0.006 4.71 0.026 6.643 0.006 0.858 0.019 1.606 0.032 2.31l-0.358 0.89v2.003c0 25.075 1.549 50.202 5.056 75.123 15.936 113.421 51.629 204.019 102.906 286.086 50.63 81.069 116.275 153.856 192.992 233.133v0.013l2.886 2.976c6.118 6.336 14.342 9.53 22.374 9.504 0.493 0 0.979-0.026 1.472-0.051 0.486 0.026 0.973 0.051 1.459 0.051 8.032 0.026 16.25-3.168 22.368-9.498l0.006-0.006c0.006-0.006 0.013-0.013 0.026-0.026l2.867-2.95v-0.013c76.717-79.283 142.362-152.064 192.992-233.133 51.277-82.074 86.963-172.666 102.906-286.086 3.507-24.928 5.056-50.054 5.056-75.123v-2.003l-0.371-0.915c0.211-4.998 0.371-10.010 0.371-15.066-0.006-93.133-36.621-177.574-95.872-238.694zM396.448 260c29.581-29.248 70.374-47.334 115.552-47.341 45.171 0.006 85.971 18.086 115.552 47.341 29.568 29.267 47.802 69.562 47.808 114.157-0.006 44.595-18.24 84.883-47.808 114.157-29.581 29.248-70.374 47.334-115.552 47.341-45.178-0.006-85.971-18.086-115.552-47.341-29.568-29.267-47.802-69.562-47.808-114.157 0.006-44.595 18.24-84.883 47.808-114.157z"
        ],
        "attrs": [
          {}
        ],
        "isMulticolor": false,
        "isMulticolor2": false,
        "grid": 0,
        "tags": [
          "Duality.vec-22"
        ]
      },
      "attrs": [
        {}
      ],
      "properties": {
        "order": 15,
        "id": 11,
        "name": "location",
        "prevSize": 32,
        "code": 76
      },
      "setIdx": 0,
      "setId": 0,
      "iconIdx": 21
    },
    {
      "icon": {
        "paths": [
          "M259.565 86.035v0.032c-10.272 0.077-19.834 0.416-28.89 1.946-8.96 1.53-17.568 4.358-25.178 9.67-5.69 3.968-10.669 9.28-14.688 15.846-6.048 9.875-10.112 22.394-12.787 38.579-2.669 16.198-3.936 36.16-3.942 61.203 0 117.030 0 438.854 0 585.146 0 9.158-0.013 21.446 1.389 34.784 1.056 10.010 2.906 20.64 6.253 31.117 1.088 3.411 2.374 6.803 3.821 10.157 0.864 4.294 2.195 8.518 4.109 12.576 5.357 11.437 15.027 21.376 28.467 28.109 13.459 6.765 30.598 10.515 51.68 10.522h549.427l28.499-117.030h2.195v-722.656h-590.355zM280.038 106.515h549.402v681.69h-549.402v-681.69zM194.56 213.306c-0.006-28.838 1.786-50.182 5.114-65.491 2.483-11.501 5.798-19.507 9.504-24.992 2.79-4.128 5.747-6.918 9.19-9.107 5.12-3.251 11.712-5.171 20.358-6.17 6.048-0.71 13.062-0.922 20.845-0.992v682.208c-20.915 2.144-38.643 10.771-51.514 22.88-4.922 4.627-9.094 9.792-12.57 15.264-0.877-10.483-0.922-20.403-0.915-28.454-0.013-146.285-0.013-468.115-0.013-585.146zM803.136 905.235h-533.331c-19.802-0.026-33.568-4.582-43.693-11.392-7.597-5.139-13.286-11.68-17.722-19.296-1.178-2.029-2.157-4.218-3.155-6.387-0.224-1.651-0.371-3.328-0.378-5.037-0.038-12.333 5.971-26.042 17.203-36.557 11.226-10.509 27.386-17.862 47.738-17.882h556.845l-23.507 96.55z"
        ],
        "attrs": [
          {}
        ],
        "isMulticolor": false,
        "isMulticolor2": false,
        "grid": 0,
        "tags": [
          "Duality.vec-23"
        ]
      },
      "attrs": [
        {}
      ],
      "properties": {
        "order": 26,
        "id": 10,
        "name": "book-outline",
        "prevSize": 32,
        "code": 98
      },
      "setIdx": 0,
      "setId": 0,
      "iconIdx": 22
    },
    {
      "icon": {
        "paths": [
          "M280.090 86.234h-20.525v0.032c-10.272 0.077-19.834 0.416-28.89 1.946-8.96 1.53-17.568 4.358-25.178 9.67-5.69 3.968-10.669 9.28-14.688 15.846-6.048 9.875-10.112 22.394-12.787 38.579-2.669 16.198-3.936 36.16-3.942 61.203 0 117.030 0 502.266 0 585.146 0 27.085 3.571 48.742 9.696 66.125 0.243 0.691 0.538 1.299 0.787 1.978 0.41 7.014 2.010 13.99 5.094 20.538 5.357 11.437 15.027 21.37 28.467 28.109 6.029 3.034 12.838 5.421 20.371 7.174 11.238 3.821 21.926 4.909 30.528 4.915 8.147-0.006 14.387-0.947 17.658-1.568h532.544l28.499-117.030h2.195v-722.662h-569.83zM803.136 905.434l-516.826-0.218c-2.509 0.102-4.947 0.147-7.328 0.147-23.322 0-39.955-4.698-51.264-11.373-5.581-4.237-10.912-9.805-15.686-17.28-1.69-2.662-3.302-5.6-4.832-8.794-0.678-2.88-1.030-5.83-1.037-8.832-0.006-3.546 0.525-7.155 1.466-10.739 2.79-7.686 7.635-15.219 14.432-21.581 11.226-10.509 27.386-17.862 47.738-17.882h556.845l-23.507 96.55z"
        ],
        "attrs": [
          {}
        ],
        "isMulticolor": false,
        "isMulticolor2": false,
        "grid": 0,
        "tags": [
          "Duality.vec-24"
        ]
      },
      "attrs": [
        {}
      ],
      "properties": {
        "order": 27,
        "id": 9,
        "name": "book",
        "prevSize": 32,
        "code": 66
      },
      "setIdx": 0,
      "setId": 0,
      "iconIdx": 23
    },
    {
      "icon": {
        "paths": [
          "M204.8 394.24c-50.906 0.006-92.154 41.254-92.16 92.16 0.006 50.899 41.254 92.154 92.16 92.16 50.906-0.006 92.154-41.254 92.16-92.16-0.006-50.906-41.261-92.154-92.16-92.16zM255.488 537.088c-13.005 12.986-30.861 20.992-50.688 20.992-19.827-0.006-37.683-8.006-50.688-20.992-12.986-13.005-20.986-30.861-20.992-50.688 0.006-19.827 8.006-37.683 20.992-50.688 13.005-12.986 30.861-20.992 50.688-20.992 19.827 0.006 37.683 8.006 50.688 20.992 12.986 13.005 20.986 30.861 20.992 50.688-0.006 19.827-8.006 37.683-20.992 50.688z",
          "M512 394.24c-50.906 0.006-92.154 41.254-92.16 92.16 0.006 50.899 41.254 92.154 92.16 92.16 50.906-0.006 92.154-41.254 92.16-92.16-0.006-50.906-41.261-92.154-92.16-92.16zM562.688 537.088c-13.005 12.986-30.861 20.992-50.688 20.992-19.827-0.006-37.683-8.006-50.688-20.992-12.986-13.005-20.986-30.861-20.992-50.688 0.006-19.827 8.006-37.683 20.992-50.688 13.005-12.986 30.861-20.992 50.688-20.992 19.827 0.006 37.683 8.006 50.688 20.992 12.986 13.005 20.986 30.861 20.992 50.688-0.006 19.827-8.006 37.683-20.992 50.688z",
          "M819.2 394.24c-50.906 0.006-92.154 41.254-92.16 92.16 0.006 50.899 41.254 92.154 92.16 92.16 50.906-0.006 92.154-41.254 92.16-92.16-0.006-50.906-41.261-92.154-92.16-92.16zM869.888 537.088c-13.005 12.986-30.861 20.992-50.688 20.992-19.827-0.006-37.683-8.006-50.688-20.992-12.986-13.005-20.986-30.861-20.992-50.688 0.006-19.827 8.006-37.683 20.992-50.688 13.005-12.986 30.861-20.992 50.688-20.992 19.827 0.006 37.683 8.006 50.688 20.992 12.986 13.005 20.986 30.861 20.992 50.688-0.006 19.827-8.006 37.683-20.992 50.688z"
        ],
        "attrs": [
          {},
          {},
          {}
        ],
        "isMulticolor": false,
        "isMulticolor2": false,
        "grid": 0,
        "tags": [
          "Duality.vec-25"
        ]
      },
      "attrs": [
        {},
        {},
        {}
      ],
      "properties": {
        "order": 28,
        "id": 8,
        "name": "dots-outline",
        "prevSize": 32,
        "code": 46,
        "ligatures": ""
      },
      "setIdx": 0,
      "setId": 0,
      "iconIdx": 24
    },
    {
      "icon": {
        "paths": [
          "M512 68.691c-142.33 0.006-257.702 115.379-257.709 257.709 0.006 142.33 115.379 257.702 257.709 257.709 142.33-0.006 257.702-115.373 257.709-257.709-0.006-142.33-115.379-257.702-257.709-257.709zM679.744 494.144c-42.963 42.944-102.202 69.478-167.744 69.485-65.542-0.006-124.781-26.541-167.744-69.485-42.944-42.963-69.478-102.202-69.485-167.744 0.006-65.542 26.534-124.781 69.485-167.744 42.963-42.944 102.202-69.478 167.744-69.485 65.542 0.006 124.781 26.534 167.744 69.485 42.944 42.963 69.478 102.202 69.485 167.744-0.006 65.542-26.541 124.781-69.485 167.744z",
          "M710.56 626.822l-6.374-3.405-5.344 4.864c-49.421 44.954-114.95 72.358-186.842 72.358-71.891-0.006-137.421-27.411-186.842-72.358l-5.344-4.864-6.374 3.405c-121.12 64.749-206.995 186.79-221.229 330.042l-1.12 11.251h841.811l-1.114-11.251c-14.234-143.251-100.109-265.293-221.229-330.042zM316.96 648.282c52.32 45.312 120.544 72.845 195.040 72.838 74.496 0.006 142.72-27.526 195.040-72.832 108.851 60.672 186.592 170.406 203.072 299.347h-796.224c16.48-128.941 94.221-238.682 203.072-299.354z"
        ],
        "attrs": [
          {},
          {}
        ],
        "isMulticolor": false,
        "isMulticolor2": false,
        "grid": 0,
        "tags": [
          "Duality.vec-26"
        ]
      },
      "attrs": [
        {},
        {}
      ],
      "properties": {
        "order": 29,
        "id": 7,
        "name": "user-outline",
        "prevSize": 32,
        "code": 117
      },
      "setIdx": 0,
      "setId": 0,
      "iconIdx": 25
    },
    {
      "icon": {
        "paths": [
          "M769.709 326.4c0 142.329-115.38 257.709-257.709 257.709s-257.709-115.38-257.709-257.709c0-142.329 115.38-257.709 257.709-257.709s257.709 115.38 257.709 257.709z",
          "M710.56 626.822l-6.374-3.405-5.344 4.864c-49.421 44.954-114.95 72.358-186.842 72.358-71.891-0.006-137.421-27.411-186.842-72.358l-5.344-4.864-6.374 3.405c-121.12 64.749-206.995 186.79-221.229 330.042l-1.12 11.251h841.811l-1.114-11.251c-14.234-143.251-100.109-265.293-221.229-330.042z"
        ],
        "attrs": [
          {},
          {}
        ],
        "isMulticolor": false,
        "isMulticolor2": false,
        "grid": 0,
        "tags": [
          "Duality.vec-27"
        ]
      },
      "attrs": [
        {},
        {}
      ],
      "properties": {
        "order": 30,
        "id": 6,
        "name": "user",
        "prevSize": 32,
        "code": 85
      },
      "setIdx": 0,
      "setId": 0,
      "iconIdx": 26
    },
    {
      "icon": {
        "paths": [
          "M296.96 486.4c0 50.899-41.261 92.16-92.16 92.16s-92.16-41.261-92.16-92.16c0-50.899 41.261-92.16 92.16-92.16s92.16 41.261 92.16 92.16z",
          "M604.16 486.4c0 50.899-41.261 92.16-92.16 92.16s-92.16-41.261-92.16-92.16c0-50.899 41.261-92.16 92.16-92.16s92.16 41.261 92.16 92.16z",
          "M911.36 486.4c0 50.899-41.261 92.16-92.16 92.16s-92.16-41.261-92.16-92.16c0-50.899 41.261-92.16 92.16-92.16s92.16 41.261 92.16 92.16z"
        ],
        "attrs": [
          {},
          {},
          {}
        ],
        "isMulticolor": false,
        "isMulticolor2": false,
        "grid": 0,
        "tags": [
          "Duality.vec-28"
        ]
      },
      "attrs": [
        {},
        {},
        {}
      ],
      "properties": {
        "order": 31,
        "id": 5,
        "name": "dots",
        "prevSize": 32,
        "code": 8230
      },
      "setIdx": 0,
      "setId": 0,
      "iconIdx": 27
    },
    {
      "icon": {
        "paths": [
          "M900.768 181.51h-781.024c-2.694 0-5.338 1.094-7.245 3.002s-2.995 4.544-2.995 7.238v100.416c0 2.694 1.088 5.331 2.995 7.238s4.544 3.002 7.245 3.002h781.030c2.733 0 5.306-1.069 7.238-3.002s2.995-4.506 2.995-7.238v-100.416c0-2.733-1.062-5.306-2.995-7.238-1.939-1.933-4.506-3.002-7.245-3.002z",
          "M900.768 464.352h-781.024c-2.694 0-5.338 1.094-7.245 3.002s-2.995 4.544-2.995 7.238v100.416c0 2.694 1.088 5.331 2.995 7.238s4.544 3.002 7.245 3.002h781.030c2.733 0 5.306-1.069 7.238-3.002s2.995-4.506 2.995-7.238v-100.416c0-2.733-1.062-5.306-2.995-7.238-1.939-1.939-4.506-3.002-7.245-3.002z",
          "M900.768 747.187h-781.024c-2.694 0-5.338 1.094-7.245 3.002s-2.995 4.544-2.995 7.238v100.416c0 2.694 1.094 5.331 2.995 7.238 1.907 1.907 4.544 3.002 7.245 3.002h781.030c2.733 0 5.306-1.062 7.238-3.002 1.933-1.933 2.995-4.506 2.995-7.238v-100.416c0-2.733-1.062-5.306-2.995-7.238-1.939-1.933-4.506-3.002-7.245-3.002z"
        ],
        "attrs": [
          {},
          {},
          {}
        ],
        "isMulticolor": false,
        "isMulticolor2": false,
        "grid": 0,
        "tags": [
          "Duality.vec-29"
        ]
      },
      "attrs": [
        {},
        {},
        {}
      ],
      "properties": {
        "order": 32,
        "id": 4,
        "name": "menu",
        "prevSize": 32,
        "code": 45
      },
      "setIdx": 0,
      "setId": 0,
      "iconIdx": 28
    },
    {
      "icon": {
        "paths": [
          "M873.12 304.461v0l-361.12 391.213-361.12-391.213c-3.84-4.154-10.317-4.416-14.47-0.576-4.154 3.834-4.41 10.31-0.576 14.47l376.154 407.507 376.173-407.507c3.834-4.154 3.578-10.63-0.576-14.47-4.154-3.834-10.63-3.578-14.464 0.576z"
        ],
        "attrs": [
          {}
        ],
        "isMulticolor": false,
        "isMulticolor2": false,
        "grid": 0,
        "tags": [
          "Duality.vec-30"
        ]
      },
      "attrs": [
        {}
      ],
      "properties": {
        "order": 33,
        "id": 3,
        "name": "chevron-down",
        "prevSize": 32,
        "code": 63
      },
      "setIdx": 0,
      "setId": 0,
      "iconIdx": 29
    },
    {
      "icon": {
        "paths": [
          "M718.016 871.597l-391.206-361.114 391.213-361.114c4.154-3.834 4.416-10.317 0.576-14.47-3.834-4.154-10.31-4.416-14.47-0.582l-407.514 376.166 407.507 376.166c4.154 3.84 10.63 3.578 14.47-0.576 3.84-4.16 3.584-10.637-0.576-14.477v0z"
        ],
        "attrs": [
          {}
        ],
        "isMulticolor": false,
        "isMulticolor2": false,
        "grid": 0,
        "tags": [
          "Duality.vec-31"
        ]
      },
      "attrs": [
        {}
      ],
      "properties": {
        "order": 34,
        "id": 2,
        "name": "chevron-left",
        "prevSize": 32,
        "code": 60
      },
      "setIdx": 0,
      "setId": 0,
      "iconIdx": 30
    },
    {
      "icon": {
        "paths": [
          "M889.683 704.128l-376.173-407.507-376.16 407.507c-3.84 4.154-3.578 10.637 0.576 14.47 4.16 3.834 10.637 3.578 14.47-0.582v0l361.114-391.206 361.12 391.206c3.834 4.154 10.31 4.416 14.47 0.582s4.416-10.317 0.582-14.47z"
        ],
        "attrs": [
          {}
        ],
        "isMulticolor": false,
        "isMulticolor2": false,
        "grid": 0,
        "tags": [
          "Duality.vec-32"
        ]
      },
      "attrs": [
        {}
      ],
      "properties": {
        "order": 35,
        "id": 1,
        "name": "chevron-up",
        "prevSize": 32,
        "code": 61
      },
      "setIdx": 0,
      "setId": 0,
      "iconIdx": 31
    },
    {
      "icon": {
        "paths": [
          "M303.885 136.416c-3.84 4.154-3.578 10.637 0.582 14.47v0l391.2 361.114-391.206 361.114c-4.16 3.84-4.416 10.317-0.576 14.47s10.317 4.416 14.47 0.576l407.507-376.16-407.507-376.166c-4.16-3.834-10.637-3.571-14.47 0.582z"
        ],
        "attrs": [
          {}
        ],
        "isMulticolor": false,
        "isMulticolor2": false,
        "grid": 0,
        "tags": [
          "Duality.vec-33"
        ]
      },
      "attrs": [
        {}
      ],
      "properties": {
        "order": 36,
        "id": 0,
        "name": "chevron-right",
        "prevSize": 32,
        "code": 62
      },
      "setIdx": 0,
      "setId": 0,
      "iconIdx": 32
    }
  ],
  "height": 1024,
  "metadata": {
    "name": "duality",
    "url": "http://tuomashatakka.gitlab.io",
    "designer": "Tuomas Hatakka",
    "designerURL": "http://tuomashatakka.me",
    "license": "FFA"
  },
  "preferences": {
    "showGlyphs": true,
    "showQuickUse": true,
    "showQuickUse2": true,
    "showSVGs": true,
    "fontPref": {
      "prefix": "dl-",
      "metadata": {
        "fontFamily": "duality",
        "majorVersion": 1,
        "minorVersion": 0,
        "fontURL": "http://tuomashatakka.gitlab.io",
        "copyright": "Tuomas Hatakka",
        "designer": "Tuomas Hatakka",
        "designerURL": "http://tuomashatakka.me",
        "license": "FFA"
      },
      "metrics": {
        "emSize": 1024,
        "baseline": 6.25,
        "whitespace": 50
      },
      "embed": false,
      "ie7": true,
      "noie8": false,
      "includeMetadata": true,
      "cssVars": true,
      "showSelector": false,
      "selector": "i",
      "showMetrics": false,
      "showMetadata": false,
      "showVersion": true,
      "autoHost": false
    },
    "imagePref": {
      "prefix": "icon-",
      "png": true,
      "useClassSelector": true,
      "color": 0,
      "bgColor": 16777215,
      "classSelector": ".icon"
    },
    "historySize": 100,
    "showCodes": true,
    "gridSize": 16,
    "showGrid": false,
    "showLiga": false,
    "quickUsageToken": {
      "UntitledProject": "MzZjNDQxYzM4NzgyZDMxYjQ5Mjk1ZTczYzhiMmViZWUjMSMxNDczODQwMjE4IyMj"
    }
  }
}